Flowrian/_service/20181209231457_SimulateISim_201624506_ToneConverter_tb/ToneConverter_tb.vcd
$date
   Sun Dec  9 23:15:02 2018
$end
$version
  P.15xf
$end
$timescale
  1ps
$end
$scope module ToneConverter_tb $end
$var wire 1 - D_out $end
$var reg 4 " B_in [3:0] $end
$var reg 1 # CLK $end
$var reg 1 $ EN $end
$var reg 1 % RST $end
$scope module U0 $end
$var wire 1 & B_in [3] $end
$var wire 1 ' B_in [2] $end
$var wire 1 ( B_in [1] $end
$var wire 1 ) B_in [0] $end
$var wire 1 * RST $end
$var wire 1 + CLK $end
$var wire 1 , EN $end
$var wire 1 - D_out $end
$var wire 1 ;! w5 $end
$var wire 1 :! w7 $end
$var wire 1 8! w8 $end
$var wire 1 7! w9 $end
$var wire 1 5! w14 $end
$var wire 1 4! w15 $end
$var wire 1 6! w17 $end
$var wire 1 ,! b15 [3] $end
$var wire 1 -! b15 [2] $end
$var wire 1 .! b15 [1] $end
$var wire 1 /! b15 [0] $end
$var wire 1 0! w18 $end
$var wire 1 '! w19 $end
$var wire 1 &! w20 $end
$var wire 1 (! w21 $end
$var wire 1 3! w16 $end
$var wire 1 2! w13 $end
$var wire 1 <! w12 $end
$var wire 1 1! w11 $end
$var wire 1 9! w6 $end
$scope module s0 $end
$var wire 1 &! clk $end
$var wire 1 '! rst $end
$var wire 1 (! en $end
$var wire 1 1! div_clk $end
$var reg 1 F buff $end
$var reg 20 G cnt [19:0] $end
$upscope $end
$scope module s1 $end
$var wire 1 &! clk $end
$var wire 1 '! rst $end
$var wire 1 (! en $end
$var wire 1 <! div_clk $end
$var reg 1 L buff $end
$var reg 20 M cnt [19:0] $end
$upscope $end
$scope module s2 $end
$var wire 1 &! clk $end
$var wire 1 '! rst $end
$var wire 1 (! en $end
$var wire 1 2! div_clk $end
$var reg 1 R buff $end
$var reg 20 S cnt [19:0] $end
$upscope $end
$scope module s3 $end
$var wire 1 &! clk $end
$var wire 1 '! rst $end
$var wire 1 (! en $end
$var wire 1 3! div_clk $end
$var reg 1 X buff $end
$var reg 20 Y cnt [19:0] $end
$upscope $end
$scope module s4 $end
$var wire 1 &! clk $end
$var wire 1 '! rst $end
$var wire 1 (! en $end
$var wire 1 4! div_clk $end
$var reg 1 ^ buff $end
$var reg 20 _ cnt [19:0] $end
$upscope $end
$scope module s5 $end
$var wire 1 &! clk $end
$var wire 1 '! rst $end
$var wire 1 (! en $end
$var wire 1 5! div_clk $end
$var reg 1 d buff $end
$var reg 20 e cnt [19:0] $end
$upscope $end
$scope module s6 $end
$var wire 1 &! clk $end
$var wire 1 '! rst $end
$var wire 1 (! en $end
$var wire 1 6! div_clk $end
$var reg 1 j buff $end
$var reg 20 k cnt [19:0] $end
$upscope $end
$scope module s7 $end
$var wire 1 &! clk $end
$var wire 1 '! rst $end
$var wire 1 (! en $end
$var wire 1 7! div_clk $end
$var reg 1 p buff $end
$var reg 20 q cnt [19:0] $end
$upscope $end
$scope module s8 $end
$var wire 1 &! clk $end
$var wire 1 '! rst $end
$var wire 1 (! en $end
$var wire 1 8! div_clk $end
$var reg 1 v buff $end
$var reg 20 w cnt [19:0] $end
$upscope $end
$scope module s9 $end
$var wire 1 &! clk $end
$var wire 1 '! rst $end
$var wire 1 (! en $end
$var wire 1 :! div_clk $end
$var reg 1 | buff $end
$var reg 20 } cnt [19:0] $end
$upscope $end
$scope module s10 $end
$var wire 1 &! clk $end
$var wire 1 '! rst $end
$var wire 1 (! en $end
$var wire 1 9! div_clk $end
$var reg 1 $! buff $end
$var reg 20 %! cnt [19:0] $end
$upscope $end
$scope module s11 $end
$var wire 1 &! clk $end
$var wire 1 '! rst $end
$var wire 1 (! en $end
$var wire 1 ;! div_clk $end
$var reg 1 *! buff $end
$var reg 20 +! cnt [19:0] $end
$upscope $end
$scope module s12 $end
$var wire 1 ,! B_in [3] $end
$var wire 1 -! B_in [2] $end
$var wire 1 .! B_in [1] $end
$var wire 1 /! B_in [0] $end
$var wire 1 0! D_out $end
$var wire 1 1! D1 $end
$var wire 1 2! D3 $end
$var wire 1 3! D4 $end
$var wire 1 4! D5 $end
$var wire 1 5! D6 $end
$var wire 1 6! D7 $end
$var wire 1 7! D8 $end
$var wire 1 8! D9 $end
$var wire 1 9! D0 $end
$var wire 1 :! D_star $end
$var wire 1 ;! D_sharp $end
$var wire 1 <! D2 $end
$var wire 1 =! w0 $end
$var wire 1 >! w1 $end
$var wire 1 ?! b2 [3] $end
$var wire 1 @! b2 [2] $end
$var wire 1 A! b2 [1] $end
$var wire 1 B! b2 [0] $end
$var wire 1 C! w4 $end
$var wire 1 D! w5 $end
$var wire 1 E! w6 $end
$var wire 1 F! w7 $end
$var wire 1 G! w8 $end
$var wire 1 H! w9 $end
$var wire 1 I! w10 $end
$var wire 1 J! w11 $end
$var wire 1 K! w12 $end
$var wire 1 L! w13 $end
$var wire 1 M! w14 $end
$var wire 1 N! w15 $end
$var wire 1 O! w16 $end
$var wire 1 P! w17 $end
$var wire 1 Q! b2_0_w3 $end
$var wire 1 R! b2_1_w18 $end
$var wire 1 S! b2_2_w19 $end
$var wire 1 T! b2_3_w20 $end
$var wire 1 U! b2_1_w21 $end
$var wire 1 V! b2_3_w23 $end
$var wire 1 W! b2_2_w22 $end
$upscope $end
$upscope $end
$upscope $end
$enddefinitions $end
#0
$dumpvars
1)
1(
0'
0-
0&
1*
1+
0,
0;!
0:!
08!
07!
05!
04!
06!
b11 "
1#
0$
1%
1/!
1.!
0-!
0,!
00!
1'!
1&!
0(!
03!
02!
0<!
01!
09!
0F
b0 G
0L
b0 M
0R
b0 S
0X
b0 Y
0^
b0 _
0d
b0 e
0j
b0 k
0p
b0 q
0v
b0 w
0|
b0 }
0$!
b0 %!
0*!
b0 +!
0=!
0>!
1B!
1A!
0@!
0?!
0C!
0D!
0E!
0F!
0G!
0H!
0I!
0J!
0K!
0L!
0M!
0N!
0O!
0P!
1Q!
1R!
0S!
0T!
1U!
0V!
0W!
$end
#50000
0+
0#
0&!
#100000
1+
1#
1&!
#150000
0+
0#
0&!
#200000
0*
1+
1#
0%
0'!
1&!
#250000
0+
0#
0&!
#300000
1+
1,
1#
1$
1&!
1(!
b1 G
b1 M
b1 S
b1 Y
b1 _
b1 e
b1 k
b1 q
b1 w
b1 }
b1 %!
b1 +!
#350000
0+
0#
0&!
#400000
1-
1+
1;!
1:!
18!
17!
15!
14!
16!
1#
10!
1&!
13!
12!
1<!
11!
19!
1F
b0 G
1L
b0 M
1R
b0 S
1X
b0 Y
1^
b0 _
1d
b0 e
1j
b0 k
1p
b0 q
1v
b0 w
1|
b0 }
1$!
b0 %!
1*!
b0 +!
1=!
1>!
1C!
1D!
1E!
1F!
1G!
1H!
1I!
1J!
1K!
1L!
1M!
1N!
1O!
#450000
0+
0#
0&!
#500000
0-
1+
0;!
0:!
08!
07!
05!
04!
06!
1#
00!
1&!
03!
02!
0<!
01!
09!
0F
b1 G
0L
b1 M
0R
b1 S
0X
b1 Y
0^
b1 _
0d
b1 e
0j
b1 k
0p
b1 q
0v
b1 w
0|
b1 }
0$!
b1 %!
0*!
b1 +!
0=!
0>!
0C!
0D!
0E!
0F!
0G!
0H!
0I!
0J!
0K!
0L!
0M!
0N!
0O!
#550000
0+
0#
0&!
#600000
1-
1+
1;!
1:!
18!
17!
15!
14!
16!
1#
10!
1&!
13!
12!
1<!
11!
19!
1F
b0 G
1L
b0 M
1R
b0 S
1X
b0 Y
1^
b0 _
1d
b0 e
1j
b0 k
1p
b0 q
1v
b0 w
1|
b0 }
1$!
b0 %!
1*!
b0 +!
1=!
1>!
1C!
1D!
1E!
1F!
1G!
1H!
1I!
1J!
1K!
1L!
1M!
1N!
1O!
#650000
0+
0#
0&!
#700000
0-
1+
0;!
0:!
08!
07!
05!
04!
06!
1#
00!
1&!
03!
02!
0<!
01!
09!
0F
b1 G
0L
b1 M
0R
b1 S
0X
b1 Y
0^
b1 _
0d
b1 e
0j
b1 k
0p
b1 q
0v
b1 w
0|
b1 }
0$!
b1 %!
0*!
b1 +!
0=!
0>!
0C!
0D!
0E!
0F!
0G!
0H!
0I!
0J!
0K!
0L!
0M!
0N!
0O!
#750000
0+
0#
0&!
#800000
1-
1+
1;!
1:!
18!
17!
15!
14!
16!
1#
10!
1&!
13!
12!
1<!
11!
19!
1F
b0 G
1L
b0 M
1R
b0 S
1X
b0 Y
1^
b0 _
1d
b0 e
1j
b0 k
1p
b0 q
1v
b0 w
1|
b0 }
1$!
b0 %!
1*!
b0 +!
1=!
1>!
1C!
1D!
1E!
1F!
1G!
1H!
1I!
1J!
1K!
1L!
1M!
1N!
1O!
#850000
0+
0#
0&!
#900000
0-
1+
0;!
0:!
08!
07!
05!
04!
06!
1#
00!
1&!
03!
02!
0<!
01!
09!
0F
b1 G
0L
b1 M
0R
b1 S
0X
b1 Y
0^
b1 _
0d
b1 e
0j
b1 k
0p
b1 q
0v
b1 w
0|
b1 }
0$!
b1 %!
0*!
b1 +!
0=!
0>!
0C!
0D!
0E!
0F!
0G!
0H!
0I!
0J!
0K!
0L!
0M!
0N!
0O!
#950000
0+
0#
0&!
#1000000
1-
1+
1;!
1:!
18!
17!
15!
14!
16!
1#
10!
1&!
13!
12!
1<!
11!
19!
1F
b0 G
1L
b0 M
1R
b0 S
1X
b0 Y
1^
b0 _
1d
b0 e
1j
b0 k
1p
b0 q
1v
b0 w
1|
b0 }
1$!
b0 %!
1*!
b0 +!
1=!
1>!
1C!
1D!
1E!
1F!
1G!
1H!
1I!
1J!
1K!
1L!
1M!
1N!
1O!
#1050000
0+
0#
0&!
#1100000
0-
1+
0;!
0:!
08!
07!
05!
04!
06!
1#
00!
1&!
03!
02!
0<!
01!
09!
0F
b1 G
0L
b1 M
0R
b1 S
0X
b1 Y
0^
b1 _
0d
b1 e
0j
b1 k
0p
b1 q
0v
b1 w
0|
b1 }
0$!
b1 %!
0*!
b1 +!
0=!
0>!
0C!
0D!
0E!
0F!
0G!
0H!
0I!
0J!
0K!
0L!
0M!
0N!
0O!
#1150000
0+
0#
0&!
#1200000
1-
1+
1;!
1:!
18!
17!
15!
14!
16!
1#
10!
1&!
13!
12!
1<!
11!
19!
1F
b0 G
1L
b0 M
1R
b0 S
1X
b0 Y
1^
b0 _
1d
b0 e
1j
b0 k
1p
b0 q
1v
b0 w
1|
b0 }
1$!
b0 %!
1*!
b0 +!
1=!
1>!
1C!
1D!
1E!
1F!
1G!
1H!
1I!
1J!
1K!
1L!
1M!
1N!
1O!
#1250000
0+
0#
0&!
#1300000
0-
1+
0;!
0:!
08!
07!
05!
04!
06!
1#
00!
1&!
03!
02!
0<!
01!
09!
0F
b1 G
0L
b1 M
0R
b1 S
0X
b1 Y
0^
b1 _
0d
b1 e
0j
b1 k
0p
b1 q
0v
b1 w
0|
b1 }
0$!
b1 %!
0*!
b1 +!
0=!
0>!
0C!
0D!
0E!
0F!
0G!
0H!
0I!
0J!
0K!
0L!
0M!
0N!
0O!
#1350000
0+
0#
0&!
#1400000
1-
1+
1;!
1:!
18!
17!
15!
14!
16!
1#
10!
1&!
13!
12!
1<!
11!
19!
1F
b0 G
1L
b0 M
1R
b0 S
1X
b0 Y
1^
b0 _
1d
b0 e
1j
b0 k
1p
b0 q
1v
b0 w
1|
b0 }
1$!
b0 %!
1*!
b0 +!
1=!
1>!
1C!
1D!
1E!
1F!
1G!
1H!
1I!
1J!
1K!
1L!
1M!
1N!
1O!
#1450000
0+
0#
0&!
#1500000
0-
1+
0;!
0:!
08!
07!
05!
04!
06!
1#
00!
1&!
03!
02!
0<!
01!
09!
0F
b1 G
0L
b1 M
0R
b1 S
0X
b1 Y
0^
b1 _
0d
b1 e
0j
b1 k
0p
b1 q
0v
b1 w
0|
b1 }
0$!
b1 %!
0*!
b1 +!
0=!
0>!
0C!
0D!
0E!
0F!
0G!
0H!
0I!
0J!
0K!
0L!
0M!
0N!
0O!
#1550000
0+
0#
0&!
#1600000
1-
1+
1;!
1:!
18!
17!
15!
14!
16!
1#
10!
1&!
13!
12!
1<!
11!
19!
1F
b0 G
1L
b0 M
1R
b0 S
1X
b0 Y
1^
b0 _
1d
b0 e
1j
b0 k
1p
b0 q
1v
b0 w
1|
b0 }
1$!
b0 %!
1*!
b0 +!
1=!
1>!
1C!
1D!
1E!
1F!
1G!
1H!
1I!
1J!
1K!
1L!
1M!
1N!
1O!
#1650000
0+
0#
0&!
#1700000
0-
1+
0;!
0:!
08!
07!
05!
04!
06!
1#
00!
1&!
03!
02!
0<!
01!
09!
0F
b1 G
0L
b1 M
0R
b1 S
0X
b1 Y
0^
b1 _
0d
b1 e
0j
b1 k
0p
b1 q
0v
b1 w
0|
b1 }
0$!
b1 %!
0*!
b1 +!
0=!
0>!
0C!
0D!
0E!
0F!
0G!
0H!
0I!
0J!
0K!
0L!
0M!
0N!
0O!
#1750000
0+
0#
0&!
#1800000
1-
1+
1;!
1:!
18!
17!
15!
14!
16!
1#
10!
1&!
13!
12!
1<!
11!
19!
1F
b0 G
1L
b0 M
1R
b0 S
1X
b0 Y
1^
b0 _
1d
b0 e
1j
b0 k
1p
b0 q
1v
b0 w
1|
b0 }
1$!
b0 %!
1*!
b0 +!
1=!
1>!
1C!
1D!
1E!
1F!
1G!
1H!
1I!
1J!
1K!
1L!
1M!
1N!
1O!
#1850000
0+
0#
0&!
#1900000
0-
1+
0;!
0:!
08!
07!
05!
04!
06!
1#
00!
1&!
03!
02!
0<!
01!
09!
0F
b1 G
0L
b1 M
0R
b1 S
0X
b1 Y
0^
b1 _
0d
b1 e
0j
b1 k
0p
b1 q
0v
b1 w
0|
b1 }
0$!
b1 %!
0*!
b1 +!
0=!
0>!
0C!
0D!
0E!
0F!
0G!
0H!
0I!
0J!
0K!
0L!
0M!
0N!
0O!
#1950000
0+
0#
0&!
#2000000
1-
1+
1;!
1:!
18!
17!
15!
14!
16!
1#
10!
1&!
13!
12!
1<!
11!
19!
1F
b0 G
1L
b0 M
1R
b0 S
1X
b0 Y
1^
b0 _
1d
b0 e
1j
b0 k
1p
b0 q
1v
b0 w
1|
b0 }
1$!
b0 %!
1*!
b0 +!
1=!
1>!
1C!
1D!
1E!
1F!
1G!
1H!
1I!
1J!
1K!
1L!
1M!
1N!
1O!
#2050000
0+
0#
0&!
#2100000
0-
1+
0;!
0:!
08!
07!
05!
04!
06!
1#
00!
1&!
03!
02!
0<!
01!
09!
0F
b1 G
0L
b1 M
0R
b1 S
0X
b1 Y
0^
b1 _
0d
b1 e
0j
b1 k
0p
b1 q
0v
b1 w
0|
b1 }
0$!
b1 %!
0*!
b1 +!
0=!
0>!
0C!
0D!
0E!
0F!
0G!
0H!
0I!
0J!
0K!
0L!
0M!
0N!
0O!
#2150000
0+
0#
0&!
#2200000
1-
1+
1;!
1:!
18!
17!
15!
14!
16!
1#
10!
1&!
13!
12!
1<!
11!
19!
1F
b0 G
1L
b0 M
1R
b0 S
1X
b0 Y
1^
b0 _
1d
b0 e
1j
b0 k
1p
b0 q
1v
b0 w
1|
b0 }
1$!
b0 %!
1*!
b0 +!
1=!
1>!
1C!
1D!
1E!
1F!
1G!
1H!
1I!
1J!
1K!
1L!
1M!
1N!
1O!
#2250000
0+
0#
0&!
#2300000
0-
1+
0;!
0:!
08!
07!
05!
04!
06!
1#
00!
1&!
03!
02!
0<!
01!
09!
0F
b1 G
0L
b1 M
0R
b1 S
0X
b1 Y
0^
b1 _
0d
b1 e
0j
b1 k
0p
b1 q
0v
b1 w
0|
b1 }
0$!
b1 %!
0*!
b1 +!
0=!
0>!
0C!
0D!
0E!
0F!
0G!
0H!
0I!
0J!
0K!
0L!
0M!
0N!
0O!
#2350000
0+
0#
0&!
#2400000
1-
1+
1;!
1:!
18!
17!
15!
14!
16!
1#
10!
1&!
13!
12!
1<!
11!
19!
1F
b0 G
1L
b0 M
1R
b0 S
1X
b0 Y
1^
b0 _
1d
b0 e
1j
b0 k
1p
b0 q
1v
b0 w
1|
b0 }
1$!
b0 %!
1*!
b0 +!
1=!
1>!
1C!
1D!
1E!
1F!
1G!
1H!
1I!
1J!
1K!
1L!
1M!
1N!
1O!
#2450000
0+
0#
0&!
#2500000
0-
1+
0;!
0:!
08!
07!
05!
04!
06!
1#
00!
1&!
03!
02!
0<!
01!
09!
0F
b1 G
0L
b1 M
0R
b1 S
0X
b1 Y
0^
b1 _
0d
b1 e
0j
b1 k
0p
b1 q
0v
b1 w
0|
b1 }
0$!
b1 %!
0*!
b1 +!
0=!
0>!
0C!
0D!
0E!
0F!
0G!
0H!
0I!
0J!
0K!
0L!
0M!
0N!
0O!
#2550000
0+
0#
0&!
#2600000
1-
1+
1;!
1:!
18!
17!
15!
14!
16!
1#
10!
1&!
13!
12!
1<!
11!
19!
1F
b0 G
1L
b0 M
1R
b0 S
1X
b0 Y
1^
b0 _
1d
b0 e
1j
b0 k
1p
b0 q
1v
b0 w
1|
b0 }
1$!
b0 %!
1*!
b0 +!
1=!
1>!
1C!
1D!
1E!
1F!
1G!
1H!
1I!
1J!
1K!
1L!
1M!
1N!
1O!
#2650000
0+
0#
0&!
#2700000
0-
1+
0;!
0:!
08!
07!
05!
04!
06!
1#
00!
1&!
03!
02!
0<!
01!
09!
0F
b1 G
0L
b1 M
0R
b1 S
0X
b1 Y
0^
b1 _
0d
b1 e
0j
b1 k
0p
b1 q
0v
b1 w
0|
b1 }
0$!
b1 %!
0*!
b1 +!
0=!
0>!
0C!
0D!
0E!
0F!
0G!
0H!
0I!
0J!
0K!
0L!
0M!
0N!
0O!
#2750000
0+
0#
0&!
#2800000
1-
1+
1;!
1:!
18!
17!
15!
14!
16!
1#
10!
1&!
13!
12!
1<!
11!
19!
1F
b0 G
1L
b0 M
1R
b0 S
1X
b0 Y
1^
b0 _
1d
b0 e
1j
b0 k
1p
b0 q
1v
b0 w
1|
b0 }
1$!
b0 %!
1*!
b0 +!
1=!
1>!
1C!
1D!
1E!
1F!
1G!
1H!
1I!
1J!
1K!
1L!
1M!
1N!
1O!
#2850000
0+
0#
0&!
#2900000
0-
1+
0;!
0:!
08!
07!
05!
04!
06!
1#
00!
1&!
03!
02!
0<!
01!
09!
0F
b1 G
0L
b1 M
0R
b1 S
0X
b1 Y
0^
b1 _
0d
b1 e
0j
b1 k
0p
b1 q
0v
b1 w
0|
b1 }
0$!
b1 %!
0*!
b1 +!
0=!
0>!
0C!
0D!
0E!
0F!
0G!
0H!
0I!
0J!
0K!
0L!
0M!
0N!
0O!
#2950000
0+
0#
0&!
#3000000
1-
1+
1;!
1:!
18!
17!
15!
14!
16!
1#
10!
1&!
13!
12!
1<!
11!
19!
1F
b0 G
1L
b0 M
1R
b0 S
1X
b0 Y
1^
b0 _
1d
b0 e
1j
b0 k
1p
b0 q
1v
b0 w
1|
b0 }
1$!
b0 %!
1*!
b0 +!
1=!
1>!
1C!
1D!
1E!
1F!
1G!
1H!
1I!
1J!
1K!
1L!
1M!
1N!
1O!
#3050000
0+
0#
0&!
#3100000
0-
1+
0;!
0:!
08!
07!
05!
04!
06!
1#
00!
1&!
03!
02!
0<!
01!
09!
0F
b1 G
0L
b1 M
0R
b1 S
0X
b1 Y
0^
b1 _
0d
b1 e
0j
b1 k
0p
b1 q
0v
b1 w
0|
b1 }
0$!
b1 %!
0*!
b1 +!
0=!
0>!
0C!
0D!
0E!
0F!
0G!
0H!
0I!
0J!
0K!
0L!
0M!
0N!
0O!
#3150000
0+
0#
0&!
#3200000
1-
1+
1;!
1:!
18!
17!
15!
14!
16!
1#
10!
1&!
13!
12!
1<!
11!
19!
1F
b0 G
1L
b0 M
1R
b0 S
1X
b0 Y
1^
b0 _
1d
b0 e
1j
b0 k
1p
b0 q
1v
b0 w
1|
b0 }
1$!
b0 %!
1*!
b0 +!
1=!
1>!
1C!
1D!
1E!
1F!
1G!
1H!
1I!
1J!
1K!
1L!
1M!
1N!
1O!
#3250000
0+
0#
0&!
#3300000
0-
1+
0;!
0:!
08!
07!
05!
04!
06!
1#
00!
1&!
03!
02!
0<!
01!
09!
0F
b1 G
0L
b1 M
0R
b1 S
0X
b1 Y
0^
b1 _
0d
b1 e
0j
b1 k
0p
b1 q
0v
b1 w
0|
b1 }
0$!
b1 %!
0*!
b1 +!
0=!
0>!
0C!
0D!
0E!
0F!
0G!
0H!
0I!
0J!
0K!
0L!
0M!
0N!
0O!
#3350000
0+
0#
0&!
#3400000
1-
1+
1;!
1:!
18!
17!
15!
14!
16!
1#
10!
1&!
13!
12!
1<!
11!
19!
1F
b0 G
1L
b0 M
1R
b0 S
1X
b0 Y
1^
b0 _
1d
b0 e
1j
b0 k
1p
b0 q
1v
b0 w
1|
b0 }
1$!
b0 %!
1*!
b0 +!
1=!
1>!
1C!
1D!
1E!
1F!
1G!
1H!
1I!
1J!
1K!
1L!
1M!
1N!
1O!
#3450000
0+
0#
0&!
#3500000
0-
1+
0;!
0:!
08!
07!
05!
04!
06!
1#
00!
1&!
03!
02!
0<!
01!
09!
0F
b1 G
0L
b1 M
0R
b1 S
0X
b1 Y
0^
b1 _
0d
b1 e
0j
b1 k
0p
b1 q
0v
b1 w
0|
b1 }
0$!
b1 %!
0*!
b1 +!
0=!
0>!
0C!
0D!
0E!
0F!
0G!
0H!
0I!
0J!
0K!
0L!
0M!
0N!
0O!
#3550000
0+
0#
0&!
#3600000
1-
1+
1;!
1:!
18!
17!
15!
14!
16!
1#
10!
1&!
13!
12!
1<!
11!
19!
1F
b0 G
1L
b0 M
1R
b0 S
1X
b0 Y
1^
b0 _
1d
b0 e
1j
b0 k
1p
b0 q
1v
b0 w
1|
b0 }
1$!
b0 %!
1*!
b0 +!
1=!
1>!
1C!
1D!
1E!
1F!
1G!
1H!
1I!
1J!
1K!
1L!
1M!
1N!
1O!
#3650000
0+
0#
0&!
#3700000
0-
1+
0;!
0:!
08!
07!
05!
04!
06!
1#
00!
1&!
03!
02!
0<!
01!
09!
0F
b1 G
0L
b1 M
0R
b1 S
0X
b1 Y
0^
b1 _
0d
b1 e
0j
b1 k
0p
b1 q
0v
b1 w
0|
b1 }
0$!
b1 %!
0*!
b1 +!
0=!
0>!
0C!
0D!
0E!
0F!
0G!
0H!
0I!
0J!
0K!
0L!
0M!
0N!
0O!
#3750000
0+
0#
0&!
#3800000
1-
1+
1;!
1:!
18!
17!
15!
14!
16!
1#
10!
1&!
13!
12!
1<!
11!
19!
1F
b0 G
1L
b0 M
1R
b0 S
1X
b0 Y
1^
b0 _
1d
b0 e
1j
b0 k
1p
b0 q
1v
b0 w
1|
b0 }
1$!
b0 %!
1*!
b0 +!
1=!
1>!
1C!
1D!
1E!
1F!
1G!
1H!
1I!
1J!
1K!
1L!
1M!
1N!
1O!
#3850000
0+
0#
0&!
#3900000
0-
1+
0;!
0:!
08!
07!
05!
04!
06!
1#
00!
1&!
03!
02!
0<!
01!
09!
0F
b1 G
0L
b1 M
0R
b1 S
0X
b1 Y
0^
b1 _
0d
b1 e
0j
b1 k
0p
b1 q
0v
b1 w
0|
b1 }
0$!
b1 %!
0*!
b1 +!
0=!
0>!
0C!
0D!
0E!
0F!
0G!
0H!
0I!
0J!
0K!
0L!
0M!
0N!
0O!
#3950000
0+
0#
0&!
#4000000
1-
1+
1;!
1:!
18!
17!
15!
14!
16!
1#
10!
1&!
13!
12!
1<!
11!
19!
1F
b0 G
1L
b0 M
1R
b0 S
1X
b0 Y
1^
b0 _
1d
b0 e
1j
b0 k
1p
b0 q
1v
b0 w
1|
b0 }
1$!
b0 %!
1*!
b0 +!
1=!
1>!
1C!
1D!
1E!
1F!
1G!
1H!
1I!
1J!
1K!
1L!
1M!
1N!
1O!
#4050000
0+
0#
0&!
#4100000
0-
1+
0;!
0:!
08!
07!
05!
04!
06!
1#
00!
1&!
03!
02!
0<!
01!
09!
0F
b1 G
0L
b1 M
0R
b1 S
0X
b1 Y
0^
b1 _
0d
b1 e
0j
b1 k
0p
b1 q
0v
b1 w
0|
b1 }
0$!
b1 %!
0*!
b1 +!
0=!
0>!
0C!
0D!
0E!
0F!
0G!
0H!
0I!
0J!
0K!
0L!
0M!
0N!
0O!
#4150000
0+
0#
0&!
#4200000
1-
1+
1;!
1:!
18!
17!
15!
14!
16!
1#
10!
1&!
13!
12!
1<!
11!
19!
1F
b0 G
1L
b0 M
1R
b0 S
1X
b0 Y
1^
b0 _
1d
b0 e
1j
b0 k
1p
b0 q
1v
b0 w
1|
b0 }
1$!
b0 %!
1*!
b0 +!
1=!
1>!
1C!
1D!
1E!
1F!
1G!
1H!
1I!
1J!
1K!
1L!
1M!
1N!
1O!
#4250000
0+
0#
0&!
#4300000
0-
1+
0;!
0:!
08!
07!
05!
04!
06!
1#
00!
1&!
03!
02!
0<!
01!
09!
0F
b1 G
0L
b1 M
0R
b1 S
0X
b1 Y
0^
b1 _
0d
b1 e
0j
b1 k
0p
b1 q
0v
b1 w
0|
b1 }
0$!
b1 %!
0*!
b1 +!
0=!
0>!
0C!
0D!
0E!
0F!
0G!
0H!
0I!
0J!
0K!
0L!
0M!
0N!
0O!
#4350000
0+
0#
0&!
#4400000
1-
1+
1;!
1:!
18!
17!
15!
14!
16!
1#
10!
1&!
13!
12!
1<!
11!
19!
1F
b0 G
1L
b0 M
1R
b0 S
1X
b0 Y
1^
b0 _
1d
b0 e
1j
b0 k
1p
b0 q
1v
b0 w
1|
b0 }
1$!
b0 %!
1*!
b0 +!
1=!
1>!
1C!
1D!
1E!
1F!
1G!
1H!
1I!
1J!
1K!
1L!
1M!
1N!
1O!
#4450000
0+
0#
0&!
#4500000
0-
1+
0;!
0:!
08!
07!
05!
04!
06!
1#
00!
1&!
03!
02!
0<!
01!
09!
0F
b1 G
0L
b1 M
0R
b1 S
0X
b1 Y
0^
b1 _
0d
b1 e
0j
b1 k
0p
b1 q
0v
b1 w
0|
b1 }
0$!
b1 %!
0*!
b1 +!
0=!
0>!
0C!
0D!
0E!
0F!
0G!
0H!
0I!
0J!
0K!
0L!
0M!
0N!
0O!
#4550000
0+
0#
0&!
#4600000
1-
1+
1;!
1:!
18!
17!
15!
14!
16!
1#
10!
1&!
13!
12!
1<!
11!
19!
1F
b0 G
1L
b0 M
1R
b0 S
1X
b0 Y
1^
b0 _
1d
b0 e
1j
b0 k
1p
b0 q
1v
b0 w
1|
b0 }
1$!
b0 %!
1*!
b0 +!
1=!
1>!
1C!
1D!
1E!
1F!
1G!
1H!
1I!
1J!
1K!
1L!
1M!
1N!
1O!
#4650000
0+
0#
0&!
#4700000
0-
1+
0;!
0:!
08!
07!
05!
04!
06!
1#
00!
1&!
03!
02!
0<!
01!
09!
0F
b1 G
0L
b1 M
0R
b1 S
0X
b1 Y
0^
b1 _
0d
b1 e
0j
b1 k
0p
b1 q
0v
b1 w
0|
b1 }
0$!
b1 %!
0*!
b1 +!
0=!
0>!
0C!
0D!
0E!
0F!
0G!
0H!
0I!
0J!
0K!
0L!
0M!
0N!
0O!
#4750000
0+
0#
0&!
#4800000
1-
1+
1;!
1:!
18!
17!
15!
14!
16!
1#
10!
1&!
13!
12!
1<!
11!
19!
1F
b0 G
1L
b0 M
1R
b0 S
1X
b0 Y
1^
b0 _
1d
b0 e
1j
b0 k
1p
b0 q
1v
b0 w
1|
b0 }
1$!
b0 %!
1*!
b0 +!
1=!
1>!
1C!
1D!
1E!
1F!
1G!
1H!
1I!
1J!
1K!
1L!
1M!
1N!
1O!
#4850000
0+
0#
0&!
#4900000
0-
1+
0;!
0:!
08!
07!
05!
04!
06!
1#
00!
1&!
03!
02!
0<!
01!
09!
0F
b1 G
0L
b1 M
0R
b1 S
0X
b1 Y
0^
b1 _
0d
b1 e
0j
b1 k
0p
b1 q
0v
b1 w
0|
b1 }
0$!
b1 %!
0*!
b1 +!
0=!
0>!
0C!
0D!
0E!
0F!
0G!
0H!
0I!
0J!
0K!
0L!
0M!
0N!
0O!
#4950000
0+
0#
0&!
#5000000
1-
1+
1;!
1:!
18!
17!
15!
14!
16!
1#
10!
1&!
13!
12!
1<!
11!
19!
1F
b0 G
1L
b0 M
1R
b0 S
1X
b0 Y
1^
b0 _
1d
b0 e
1j
b0 k
1p
b0 q
1v
b0 w
1|
b0 }
1$!
b0 %!
1*!
b0 +!
1=!
1>!
1C!
1D!
1E!
1F!
1G!
1H!
1I!
1J!
1K!
1L!
1M!
1N!
1O!
#5050000
0+
0#
0&!
#5100000
0-
1+
0;!
0:!
08!
07!
05!
04!
06!
1#
00!
1&!
03!
02!
0<!
01!
09!
0F
b1 G
0L
b1 M
0R
b1 S
0X
b1 Y
0^
b1 _
0d
b1 e
0j
b1 k
0p
b1 q
0v
b1 w
0|
b1 }
0$!
b1 %!
0*!
b1 +!
0=!
0>!
0C!
0D!
0E!
0F!
0G!
0H!
0I!
0J!
0K!
0L!
0M!
0N!
0O!
#5150000
0+
0#
0&!
#5200000
1-
1+
1;!
1:!
18!
17!
15!
14!
16!
1#
10!
1&!
13!
12!
1<!
11!
19!
1F
b0 G
1L
b0 M
1R
b0 S
1X
b0 Y
1^
b0 _
1d
b0 e
1j
b0 k
1p
b0 q
1v
b0 w
1|
b0 }
1$!
b0 %!
1*!
b0 +!
1=!
1>!
1C!
1D!
1E!
1F!
1G!
1H!
1I!
1J!
1K!
1L!
1M!
1N!
1O!
#5250000
0+
0#
0&!
#5300000
0-
1+
0;!
0:!
08!
07!
05!
04!
06!
1#
00!
1&!
03!
02!
0<!
01!
09!
0F
b1 G
0L
b1 M
0R
b1 S
0X
b1 Y
0^
b1 _
0d
b1 e
0j
b1 k
0p
b1 q
0v
b1 w
0|
b1 }
0$!
b1 %!
0*!
b1 +!
0=!
0>!
0C!
0D!
0E!
0F!
0G!
0H!
0I!
0J!
0K!
0L!
0M!
0N!
0O!
#5350000
0+
0#
0&!
