Flowrian/_service/20181129214704_SimulateISim_201624506_LaunchPad_tb/LaunchPad_tb.vcd
$date
   Thu Nov 29 21:47:09 2018
$end
$version
  P.15xf
$end
$timescale
  1ps
$end
$scope module LaunchPad_tb $end
$var wire 1 ! Accout [11] $end
$var wire 1 " Accout [10] $end
$var wire 1 # Accout [9] $end
$var wire 1 $ Accout [8] $end
$var wire 1 % Accout [7] $end
$var wire 1 & Accout [6] $end
$var wire 1 ' Accout [5] $end
$var wire 1 ( Accout [4] $end
$var wire 1 ) Accout [3] $end
$var wire 1 * Accout [2] $end
$var wire 1 + Accout [1] $end
$var wire 1 , Accout [0] $end
$var wire 1 - CE $end
$var wire 1 . Dout [3] $end
$var wire 1 / Dout [2] $end
$var wire 1 0 Dout [1] $end
$var wire 1 1 Dout [0] $end
$var wire 1 2 Pout $end
$var wire 1 3 RW $end
$var reg 1 4 BTN1 $end
$var reg 1 5 BTN2 $end
$var reg 1 6 BTN3 $end
$var reg 1 7 BTN4 $end
$var reg 1 8 BTN5 $end
$var reg 1 9 BTN6 $end
$var reg 1 : BTN7 $end
$var reg 1 ; BTN8 $end
$var reg 1 < BTN9 $end
$var reg 1 = BTN_0 $end
$var reg 1 > BTN_sharp $end
$var reg 1 ? BTN_star $end
$var reg 1 @ CLK $end
$var reg 1 A Dip_1 $end
$var reg 1 B Dip_2 $end
$var reg 1 C Dip_3 $end
$var reg 1 D Dip_4 $end
$var reg 1 E RST $end
$upscope $end
$enddefinitions $end
#0
$dumpvars
0,
0+
0*
0)
0(
0'
0&
0%
0$
0#
0"
0!
04
05
06
07
08
09
0:
0;
0<
0=
0>
0?
1@
1A
0B
0C
0D
1E
0-
01
00
0/
0.
02
03
$end
#50000
0@
#100000
1@
#150000
0@
#200000
1@
#250000
0@
#300000
1@
0E
#350000
0@
#400000
14
1@
#450000
0@
#500000
1@
#550000
0@
#600000
1@
#650000
0@
#700000
1@
#750000
0@
#800000
04
1@
#850000
0@
#900000
1@
#950000
0@
#1000000
1@
#1050000
0@
#1100000
1@
0A
#1150000
0@
#1200000
19
1@
#1250000
0@
#1300000
1@
#1350000
0@
#1400000
1@
#1450000
0@
#1500000
09
1@
#1550000
0@
#1600000
1@
1B
#1650000
0@
#1700000
1@
#1750000
0@
#1800000
1@
#1850000
0@
#1900000
14
1@
#1950000
0@
#2000000
1@
#2050000
0@
#2100000
1@
#2150000
0@
#2200000
04
1@
#2250000
0@
#2300000
1@
#2350000
0@
#2400000
1@
1D
1-
#2450000
0@
#2500000
1@
#2550000
0@
#2600000
1@
#2650000
0@
#2700000
1*
16
1@
13
#2750000
0@
#2800000
1@
10
#2850000
0@
#2900000
1@
#2950000
0@
#3000000
06
1@
#3050000
0@
#3100000
1@
#3150000
0@
#3200000
1(
18
1@
#3250000
0@
#3300000
1@
1/
#3350000
0@
#3400000
1@
#3450000
0@
#3500000
08
1@
#3550000
0@
#3600000
1@
#3650000
0@
#3700000
1"
1=
1@
#3750000
0@
#3800000
1@
1.
#3850000
0@
#3900000
1@
#3950000
0@
#4000000
0=
1@
#4050000
0@
#4100000
1@
#4150000
0@
#4200000
1!
1>
1@
#4250000
0@
#4300000
1@
11
#4350000
0@
#4400000
0>
1@
