Flowrian/_service/20181221131735_SimulateISim_201624506_LaunchPad_tb/LaunchPad_tb.vcd
$date
   Fri Dec 21 13:17:41 2018
$end
$version
  P.15xf
$end
$timescale
  1ps
$end
$scope module LaunchPad_tb $end
$var wire 1 b Dout [3] $end
$var wire 1 c Dout [2] $end
$var wire 1 d Dout [1] $end
$var wire 1 e Dout [0] $end
$var wire 1 a Pout $end
$var wire 1 i led_1 $end
$var wire 1 p led_1_B $end
$var wire 1 q led_1_G $end
$var wire 1 r led_1_R $end
$var wire 1 | led_2 $end
$var wire 1 s led_2_B $end
$var wire 1 t led_2_G $end
$var wire 1 u led_2_R $end
$var wire 1 j led_3 $end
$var wire 1 v led_3_B $end
$var wire 1 w led_3_G $end
$var wire 1 x led_3_R $end
$var wire 1 k led_4 $end
$var wire 1 y led_4_B $end
$var wire 1 z led_4_G $end
$var wire 1 { led_4_R $end
$var wire 1 l led_5 $end
$var wire 1 m led_6 $end
$var wire 1 n led_7 $end
$var wire 1 o led_8 $end
$var reg 1 : BTN1 $end
$var reg 1 ; BTN2 $end
$var reg 1 < BTN3 $end
$var reg 1 = BTN4 $end
$var reg 1 > BTN5 $end
$var reg 1 ? BTN6 $end
$var reg 1 @ BTN7 $end
$var reg 1 A BTN8 $end
$var reg 1 B BTN9 $end
$var reg 1 C BTN_0 $end
$var reg 1 D BTN_sharp $end
$var reg 1 E BTN_star $end
$var reg 1 F CLK $end
$var reg 1 G Dip_1 $end
$var reg 1 H Dip_2 $end
$var reg 1 I Dip_3 $end
$var reg 1 J Dip_4 $end
$var reg 1 K Dip_6 $end
$var reg 1 L Dip_7 $end
$var reg 1 M Dip_8 $end
$var reg 1 N RST $end
$scope module U0 $end
$var wire 1 O Dip_1 $end
$var wire 1 P Dip_2 $end
$var wire 1 Q Dip_3 $end
$var wire 1 R BTN1 $end
$var wire 1 S BTN2 $end
$var wire 1 T BTN3 $end
$var wire 1 U BTN4 $end
$var wire 1 V BTN5 $end
$var wire 1 W BTN6 $end
$var wire 1 X BTN7 $end
$var wire 1 Y BTN8 $end
$var wire 1 Z BTN9 $end
$var wire 1 [ BTN_star $end
$var wire 1 \ Dip_4 $end
$var wire 1 ] BTN_0 $end
$var wire 1 ^ BTN_sharp $end
$var wire 1 _ CLK $end
$var wire 1 ` RST $end
$var wire 1 a Pout $end
$var wire 1 b Dout [3] $end
$var wire 1 c Dout [2] $end
$var wire 1 d Dout [1] $end
$var wire 1 e Dout [0] $end
$var wire 1 f Dip_6 $end
$var wire 1 g Dip_7 $end
$var wire 1 h Dip_8 $end
$var wire 1 i led_1 $end
$var wire 1 j led_3 $end
$var wire 1 k led_4 $end
$var wire 1 l led_5 $end
$var wire 1 m led_6 $end
$var wire 1 n led_7 $end
$var wire 1 o led_8 $end
$var wire 1 p led_1_B $end
$var wire 1 q led_1_G $end
$var wire 1 r led_1_R $end
$var wire 1 s led_2_B $end
$var wire 1 t led_2_G $end
$var wire 1 u led_2_R $end
$var wire 1 v led_3_B $end
$var wire 1 w led_3_G $end
$var wire 1 x led_3_R $end
$var wire 1 y led_4_B $end
$var wire 1 z led_4_G $end
$var wire 1 { led_4_R $end
$var wire 1 | led_2 $end
$var wire 1 0" w0 $end
$var wire 1 1" w1 $end
$var wire 1 2" w2 $end
$var wire 1 F" w3 $end
$var wire 1 -# w34 $end
$var wire 1 /# w33 $end
$var wire 1 D$ w37 $end
$var wire 1 0# b25 [11] $end
$var wire 1 1# b25 [10] $end
$var wire 1 2# b25 [9] $end
$var wire 1 3# b25 [8] $end
$var wire 1 4# b25 [7] $end
$var wire 1 5# b25 [6] $end
$var wire 1 6# b25 [5] $end
$var wire 1 7# b25 [4] $end
$var wire 1 8# b25 [3] $end
$var wire 1 9# b25 [2] $end
$var wire 1 :# b25 [1] $end
$var wire 1 ;# b25 [0] $end
$var wire 1 ?# b48 [11] $end
$var wire 1 @# b48 [10] $end
$var wire 1 A# b48 [9] $end
$var wire 1 B# b48 [8] $end
$var wire 1 C# b48 [7] $end
$var wire 1 D# b48 [6] $end
$var wire 1 E# b48 [5] $end
$var wire 1 F# b48 [4] $end
$var wire 1 G# b48 [3] $end
$var wire 1 H# b48 [2] $end
$var wire 1 I# b48 [1] $end
$var wire 1 J# b48 [0] $end
$var wire 1 7% w62 $end
$var wire 1 6% w59 $end
$var wire 1 5% w61 $end
$var wire 1 s$ b41 [3] $end
$var wire 1 t$ b41 [2] $end
$var wire 1 u$ b41 [1] $end
$var wire 1 v$ b41 [0] $end
$var wire 1 E& w64 $end
$var wire 1 3% w60 $end
$var wire 1 C% b46 [3] $end
$var wire 1 D% b46 [2] $end
$var wire 1 E% b46 [1] $end
$var wire 1 F% b46 [0] $end
$var wire 1 G& w79 $end
$var wire 1 H& w80 $end
$var wire 1 I& w81 $end
$var wire 1 J& b50 [2] $end
$var wire 1 K& b50 [1] $end
$var wire 1 L& b50 [0] $end
$var wire 1 |" w57 $end
$var wire 1 D& w82 $end
$var wire 1 ?% b51 [3] $end
$var wire 1 @% b51 [2] $end
$var wire 1 A% b51 [1] $end
$var wire 1 B% b51 [0] $end
$var wire 1 8% b52 [3] $end
$var wire 1 9% b52 [2] $end
$var wire 1 :% b52 [1] $end
$var wire 1 ;% b52 [0] $end
$var wire 1 F& w65 $end
$var wire 1 u& w21 $end
$var wire 1 t& w22 $end
$var wire 1 s& w23 $end
$var wire 1 r& w24 $end
$var wire 1 q& w25 $end
$var wire 1 p& w26 $end
$var wire 1 o& w27 $end
$var wire 1 n& w28 $end
$var wire 1 m& w29 $end
$var wire 1 l& w30 $end
$var wire 1 k& w31 $end
$var wire 1 j& w32 $end
$var wire 1 `& w78 $end
$var wire 1 c& w83 $end
$var wire 1 b& w84 $end
$var wire 1 d& w85 $end
$var wire 1 e& w86 $end
$var wire 1 f& w87 $end
$var wire 1 g& w88 $end
$var wire 1 h& w89 $end
$var wire 1 i& w90 $end
$var wire 1 6' w92 $end
$var wire 1 8' w91 $end
$var wire 1 :' w94 $end
$var wire 1 <' w95 $end
$var wire 1 ;' w93 $end
$var wire 1 G$ b48_0_w45 $end
$var wire 1 H$ b48_1_w46 $end
$var wire 1 I$ b48_2_w47 $end
$var wire 1 J$ b48_3_w48 $end
$var wire 1 K$ b48_4_w49 $end
$var wire 1 L$ b48_5_w50 $end
$var wire 1 M$ b48_6_w51 $end
$var wire 1 N$ b48_7_w52 $end
$var wire 1 O$ b48_8_w53 $end
$var wire 1 P$ b48_9_w54 $end
$var wire 1 Q$ b48_10_w55 $end
$var wire 1 R$ b48_11_w56 $end
$var wire 1 T" b25_11_w69 $end
$var wire 1 N" b25_5_w72 $end
$var wire 1 M" b25_4_w71 $end
$var wire 1 P" b25_7_w74 $end
$var wire 1 X& b25_0_w66 $end
$var wire 1 ^& b25_9_w76 $end
$var wire 1 _& b25_10_w77 $end
$var wire 1 Y& b25_1_w67 $end
$var wire 1 Z& b25_2_w68 $end
$var wire 1 [& b25_3_w70 $end
$var wire 1 \& b25_6_w73 $end
$var wire 1 ]& b25_8_w75 $end
$scope module s0 $end
$var wire 1 0" switch_1 $end
$var wire 1 1" switch_2 $end
$var wire 1 2" switch_3 $end
$var wire 1 F" mod_1 $end
$var wire 1 D$ mod_2 $end
$var wire 1 ;' mod_3 $end
$var wire 1 6" w5 $end
$var wire 1 7" w6 $end
$var wire 1 8" w8 $end
$var wire 1 9" w9 $end
$var wire 1 :" w10 $end
$var wire 1 ;" w11 $end
$var wire 1 <" w13 $end
$var wire 1 =" w14 $end
$var wire 1 >" w15 $end
$var wire 1 ?" w16 $end
$var wire 1 @" w17 $end
$var wire 1 A" w12 $end
$var wire 1 B" w18 $end
$var wire 1 C" w19 $end
$var wire 1 D" w20 $end
$var wire 1 E" w21 $end
$upscope $end
$scope module s1 $end
$var wire 1 F" i1 $end
$var wire 1 D$ i2 $end
$var wire 1 -# o1 $end
$upscope $end
$scope module s2 $end
$var wire 1 X& in_0 $end
$var wire 1 Y& in_1 $end
$var wire 1 Z& in_2 $end
$var wire 1 [& in_3 $end
$var wire 1 M" in_4 $end
$var wire 1 N" in_5 $end
$var wire 1 \& in_6 $end
$var wire 1 P" in_7 $end
$var wire 1 ]& in_8 $end
$var wire 1 ^& in_9 $end
$var wire 1 _& in_10 $end
$var wire 1 T" in_11 $end
$var wire 1 s$ out_binary [3] $end
$var wire 1 t$ out_binary [2] $end
$var wire 1 u$ out_binary [1] $end
$var wire 1 v$ out_binary [0] $end
$var wire 1 6% chk $end
$var wire 1 Z" w18 $end
$var wire 1 [" w19 $end
$var wire 1 \" w23 $end
$var wire 1 ]" w24 $end
$var wire 1 ^" b20 [3] $end
$var wire 1 _" b20 [2] $end
$var wire 1 `" b20 [1] $end
$var wire 1 a" b20 [0] $end
$var wire 1 b" w32 $end
$var wire 1 c" w33 $end
$var wire 1 d" w20 $end
$var wire 1 e" w34 $end
$var wire 1 f" w25 $end
$var wire 1 g" w21 $end
$var wire 1 h" w26 $end
$var wire 1 i" w35 $end
$var wire 1 j" w28 $end
$var wire 1 k" w36 $end
$var wire 1 l" w22 $end
$var wire 1 m" w37 $end
$var wire 1 n" w38 $end
$var wire 1 o" w39 $end
$var wire 1 p" w40 $end
$var wire 1 q" b20_1 $end
$var wire 1 r" b20_0 $end
$var wire 1 s" b20_2 $end
$var wire 1 t" b20_3 $end
$upscope $end
$scope module s3 $end
$var wire 1 8' RST $end
$var wire 1 `& CLK $end
$var wire 1 s$ Bin [3] $end
$var wire 1 t$ Bin [2] $end
$var wire 1 u$ Bin [1] $end
$var wire 1 v$ Bin [0] $end
$var wire 1 /# EN $end
$var wire 1 |" Dout $end
$var wire 1 J& octave [2] $end
$var wire 1 K& octave [1] $end
$var wire 1 L& octave [0] $end
$var wire 1 "# w4 $end
$var wire 1 ## w5 $end
$var wire 1 $# w6 $end
$var wire 1 %# w7 $end
$var wire 1 &# b4 [3] $end
$var wire 1 '# b4 [2] $end
$var wire 1 (# b4 [1] $end
$var wire 1 )# b4 [0] $end
$var wire 1 *# b5 [2] $end
$var wire 1 +# b5 [1] $end
$var wire 1 ,# b5 [0] $end
$upscope $end
$scope module s4 $end
$var wire 1 -# i1 $end
$var wire 1 6% i2 $end
$var wire 1 /# o1 $end
$upscope $end
$scope module s5 $end
$var wire 1 0# Din [11] $end
$var wire 1 1# Din [10] $end
$var wire 1 2# Din [9] $end
$var wire 1 3# Din [8] $end
$var wire 1 4# Din [7] $end
$var wire 1 5# Din [6] $end
$var wire 1 6# Din [5] $end
$var wire 1 7# Din [4] $end
$var wire 1 8# Din [3] $end
$var wire 1 9# Din [2] $end
$var wire 1 :# Din [1] $end
$var wire 1 ;# Din [0] $end
$var wire 1 D& Ce $end
$var wire 1 `& CLK $end
$var wire 1 8' RST $end
$var wire 1 ?# Dout [11] $end
$var wire 1 @# Dout [10] $end
$var wire 1 A# Dout [9] $end
$var wire 1 B# Dout [8] $end
$var wire 1 C# Dout [7] $end
$var wire 1 D# Dout [6] $end
$var wire 1 E# Dout [5] $end
$var wire 1 F# Dout [4] $end
$var wire 1 G# Dout [3] $end
$var wire 1 H# Dout [2] $end
$var wire 1 I# Dout [1] $end
$var wire 1 J# Dout [0] $end
$var wire 1 K# b27 [11] $end
$var wire 1 L# b27 [10] $end
$var wire 1 M# b27 [9] $end
$var wire 1 N# b27 [8] $end
$var wire 1 O# b27 [7] $end
$var wire 1 P# b27 [6] $end
$var wire 1 Q# b27 [5] $end
$var wire 1 R# b27 [4] $end
$var wire 1 S# b27 [3] $end
$var wire 1 T# b27 [2] $end
$var wire 1 U# b27 [1] $end
$var wire 1 V# b27 [0] $end
$var wire 1 W# b28 [11] $end
$var wire 1 X# b28 [10] $end
$var wire 1 Y# b28 [9] $end
$var wire 1 Z# b28 [8] $end
$var wire 1 [# b28 [7] $end
$var wire 1 \# b28 [6] $end
$var wire 1 ]# b28 [5] $end
$var wire 1 ^# b28 [4] $end
$var wire 1 _# b28 [3] $end
$var wire 1 `# b28 [2] $end
$var wire 1 a# b28 [1] $end
$var wire 1 b# b28 [0] $end
$var wire 1 c# w43 $end
$var wire 1 d# w39 $end
$var wire 1 e# w41 $end
$var wire 1 f# w45 $end
$var wire 1 g# w47 $end
$var wire 1 h# w49 $end
$var wire 1 i# w51 $end
$var wire 1 j# w53 $end
$var wire 1 k# w55 $end
$var wire 1 l# w57 $end
$var wire 1 m# w59 $end
$var wire 1 n# w61 $end
$var wire 1 o# w63 $end
$var wire 1 p# w66 $end
$var wire 1 q# w70 $end
$var wire 1 r# w71 $end
$var wire 1 s# w74 $end
$var wire 1 t# w76 $end
$var wire 1 u# w78 $end
$var wire 1 v# w80 $end
$var wire 1 w# w81 $end
$var wire 1 x# w84 $end
$var wire 1 y# w86 $end
$var wire 1 z# w65 $end
$var wire 1 {# w88 $end
$var wire 1 |# w68 $end
$var wire 1 }# w93 $end
$var wire 1 ~# b27_11_w37 $end
$var wire 1 !$ b28_11 $end
$var wire 1 "$ b28_11_w40 $end
$var wire 1 #$ b27_10_w67 $end
$var wire 1 $$ b27_9_w69 $end
$var wire 1 %$ b27_8_w72 $end
$var wire 1 &$ b27_7_w73 $end
$var wire 1 '$ b27_6_w75 $end
$var wire 1 ($ b27_5_w77 $end
$var wire 1 )$ b27_4_w79 $end
$var wire 1 *$ b27_3_w82 $end
$var wire 1 +$ b27_2_w83 $end
$var wire 1 ,$ b27_1_w85 $end
$var wire 1 -$ b27_0_w87 $end
$var wire 1 .$ b28_0 $end
$var wire 1 /$ b28_0_w64 $end
$var wire 1 0$ b28_1 $end
$var wire 1 1$ b28_1_w62 $end
$var wire 1 2$ b28_2 $end
$var wire 1 3$ b28_2_w60 $end
$var wire 1 4$ b28_3 $end
$var wire 1 5$ b28_3_w89 $end
$var wire 1 6$ b28_4 $end
$var wire 1 7$ b28_4_w58 $end
$var wire 1 8$ b28_5 $end
$var wire 1 9$ b28_5_w90 $end
$var wire 1 :$ b28_6 $end
$var wire 1 ;$ b28_6_w56 $end
$var wire 1 <$ b28_7 $end
$var wire 1 =$ b28_7_w91 $end
$var wire 1 >$ b28_8 $end
$var wire 1 ?$ b28_8_w54 $end
$var wire 1 @$ b28_9 $end
$var wire 1 A$ b28_9_w92 $end
$var wire 1 B$ b28_10 $end
$var wire 1 C$ b28_10_w52 $end
$upscope $end
$scope module s6 $end
$var wire 1 D$ i1 $end
$var wire 1 3% i2 $end
$var wire 1 D& o1 $end
$upscope $end
$scope module s7 $end
$var wire 1 G$ in_0 $end
$var wire 1 H$ in_1 $end
$var wire 1 I$ in_2 $end
$var wire 1 J$ in_3 $end
$var wire 1 K$ in_4 $end
$var wire 1 L$ in_5 $end
$var wire 1 M$ in_6 $end
$var wire 1 N$ in_7 $end
$var wire 1 O$ in_8 $end
$var wire 1 P$ in_9 $end
$var wire 1 Q$ in_10 $end
$var wire 1 R$ in_11 $end
$var wire 1 8% out_binary [3] $end
$var wire 1 9% out_binary [2] $end
$var wire 1 :% out_binary [1] $end
$var wire 1 ;% out_binary [0] $end
$var wire 1 E& chk $end
$var wire 1 X$ w18 $end
$var wire 1 Y$ w19 $end
$var wire 1 Z$ w23 $end
$var wire 1 [$ w24 $end
$var wire 1 \$ b20 [3] $end
$var wire 1 ]$ b20 [2] $end
$var wire 1 ^$ b20 [1] $end
$var wire 1 _$ b20 [0] $end
$var wire 1 `$ w32 $end
$var wire 1 a$ w33 $end
$var wire 1 b$ w20 $end
$var wire 1 c$ w34 $end
$var wire 1 d$ w25 $end
$var wire 1 e$ w21 $end
$var wire 1 f$ w26 $end
$var wire 1 g$ w35 $end
$var wire 1 h$ w28 $end
$var wire 1 i$ w36 $end
$var wire 1 j$ w22 $end
$var wire 1 k$ w37 $end
$var wire 1 l$ w38 $end
$var wire 1 m$ w39 $end
$var wire 1 n$ w40 $end
$var wire 1 o$ b20_1 $end
$var wire 1 p$ b20_0 $end
$var wire 1 q$ b20_2 $end
$var wire 1 r$ b20_3 $end
$upscope $end
$scope module s8 $end
$var wire 1 s$ Din [3] $end
$var wire 1 t$ Din [2] $end
$var wire 1 u$ Din [1] $end
$var wire 1 v$ Din [0] $end
$var wire 1 `& CLK $end
$var wire 1 8' RST $end
$var wire 1 7% Ce $end
$var wire 1 ?% Dout [3] $end
$var wire 1 @% Dout [2] $end
$var wire 1 A% Dout [1] $end
$var wire 1 B% Dout [0] $end
$var wire 1 ~$ w1 $end
$var wire 1 !% w2 $end
$var wire 1 "% w3 $end
$var wire 1 #% b7 [3] $end
$var wire 1 $% b7 [2] $end
$var wire 1 %% b7 [1] $end
$var wire 1 &% b7 [0] $end
$var wire 1 '% b8 [3] $end
$var wire 1 (% b8 [2] $end
$var wire 1 )% b8 [1] $end
$var wire 1 *% b8 [0] $end
$var wire 1 +% b7_3_w4 $end
$var wire 1 ,% b7_2_w5 $end
$var wire 1 -% b7_1_w6 $end
$var wire 1 .% b7_0_w7 $end
$var wire 1 /% b8_3 $end
$var wire 1 0% b8_2 $end
$var wire 1 1% b8_1 $end
$var wire 1 2% b8_0 $end
$upscope $end
$scope module s9 $end
$var wire 1 3% i1 $end
$var wire 1 5% o1 $end
$upscope $end
$scope module s10 $end
$var wire 1 5% i1 $end
$var wire 1 6% i2 $end
$var wire 1 7% o1 $end
$upscope $end
$scope module s11 $end
$var wire 1 8% Din [3] $end
$var wire 1 9% Din [2] $end
$var wire 1 :% Din [1] $end
$var wire 1 ;% Din [0] $end
$var wire 1 F& RW $end
$var wire 1 8' RST $end
$var wire 1 `& CLK $end
$var wire 1 ?% Address [3] $end
$var wire 1 @% Address [2] $end
$var wire 1 A% Address [1] $end
$var wire 1 B% Address [0] $end
$var wire 1 C% Dout [3] $end
$var wire 1 D% Dout [2] $end
$var wire 1 E% Dout [1] $end
$var wire 1 F% Dout [0] $end
$var wire 1 G% w5 $end
$var wire 1 H% w4 $end
$var wire 1 I% b4 [3] $end
$var wire 1 J% b4 [2] $end
$var wire 1 K% b4 [1] $end
$var wire 1 L% b4 [0] $end
$var wire 1 M% w6 $end
$var wire 1 N% w7 $end
$var wire 1 O% w8 $end
$var wire 1 P% w9 $end
$var wire 1 Q% w10 $end
$var wire 1 R% w11 $end
$var wire 1 S% w12 $end
$var wire 1 T% w13 $end
$var wire 1 U% w14 $end
$var wire 1 V% w15 $end
$var wire 1 W% w16 $end
$var wire 1 X% w17 $end
$var wire 1 Y% w19 $end
$var wire 1 Z% w20 $end
$var wire 1 [% w21 $end
$var wire 1 \% w22 $end
$var wire 1 ]% w23 $end
$var wire 1 ^% w24 $end
$var wire 1 _% w25 $end
$var wire 1 `% w26 $end
$var wire 1 a% w27 $end
$var wire 1 b% w28 $end
$var wire 1 c% w29 $end
$var wire 1 d% w30 $end
$var wire 1 e% b29 [3] $end
$var wire 1 f% b29 [2] $end
$var wire 1 g% b29 [1] $end
$var wire 1 h% b29 [0] $end
$var wire 1 i% b30 [3] $end
$var wire 1 j% b30 [2] $end
$var wire 1 k% b30 [1] $end
$var wire 1 l% b30 [0] $end
$var wire 1 m% b32 [3] $end
$var wire 1 n% b32 [2] $end
$var wire 1 o% b32 [1] $end
$var wire 1 p% b32 [0] $end
$var wire 1 q% b33 [3] $end
$var wire 1 r% b33 [2] $end
$var wire 1 s% b33 [1] $end
$var wire 1 t% b33 [0] $end
$var wire 1 u% b34 [3] $end
$var wire 1 v% b34 [2] $end
$var wire 1 w% b34 [1] $end
$var wire 1 x% b34 [0] $end
$var wire 1 y% b35 [3] $end
$var wire 1 z% b35 [2] $end
$var wire 1 {% b35 [1] $end
$var wire 1 |% b35 [0] $end
$var wire 1 }% b36 [3] $end
$var wire 1 ~% b36 [2] $end
$var wire 1 !& b36 [1] $end
$var wire 1 "& b36 [0] $end
$var wire 1 #& b37 [3] $end
$var wire 1 $& b37 [2] $end
$var wire 1 %& b37 [1] $end
$var wire 1 && b37 [0] $end
$var wire 1 '& b38 [3] $end
$var wire 1 (& b38 [2] $end
$var wire 1 )& b38 [1] $end
$var wire 1 *& b38 [0] $end
$var wire 1 +& b39 [3] $end
$var wire 1 ,& b39 [2] $end
$var wire 1 -& b39 [1] $end
$var wire 1 .& b39 [0] $end
$var wire 1 /& b41 [3] $end
$var wire 1 0& b41 [2] $end
$var wire 1 1& b41 [1] $end
$var wire 1 2& b41 [0] $end
$var wire 1 3& b45 [3] $end
$var wire 1 4& b45 [2] $end
$var wire 1 5& b45 [1] $end
$var wire 1 6& b45 [0] $end
$var wire 1 7& w18 $end
$var wire 1 8& b46 [3] $end
$var wire 1 9& b46 [2] $end
$var wire 1 :& b46 [1] $end
$var wire 1 ;& b46 [0] $end
$var wire 1 <& b47 [3] $end
$var wire 1 =& b47 [2] $end
$var wire 1 >& b47 [1] $end
$var wire 1 ?& b47 [0] $end
$var wire 1 @& b41_3_w41 $end
$var wire 1 A& b41_2_w42 $end
$var wire 1 B& b41_1_w43 $end
$var wire 1 C& b41_0_w44 $end
$upscope $end
$scope module s12 $end
$var wire 1 D& i1 $end
$var wire 1 E& i2 $end
$var wire 1 F& o1 $end
$upscope $end
$scope module s13 $end
$var wire 1 G& D0 $end
$var wire 1 H& D1 $end
$var wire 1 I& D2 $end
$var wire 1 J& Dout [2] $end
$var wire 1 K& Dout [1] $end
$var wire 1 L& Dout [0] $end
$var wire 1 M& b0 [2] $end
$var wire 1 N& b0 [1] $end
$var wire 1 O& b0 [0] $end
$var wire 1 P& w2 $end
$var wire 1 Q& w8 $end
$var wire 1 R& w9 $end
$var wire 1 S& w12 $end
$var wire 1 T& w13 $end
$var wire 1 U& b0_0 $end
$var wire 1 V& b0_1 $end
$var wire 1 W& b0_2_w14 $end
$upscope $end
$scope module s14 $end
$var wire 1 X& event_1 $end
$var wire 1 Y& event_2 $end
$var wire 1 Z& event_3 $end
$var wire 1 [& event_4 $end
$var wire 1 \& event_7 $end
$var wire 1 ]& event_9 $end
$var wire 1 ^& event_10 $end
$var wire 1 _& event_11 $end
$var wire 1 `& CLK $end
$var wire 1 :' RST $end
$var wire 1 b& led_1 $end
$var wire 1 c& led_2 $end
$var wire 1 d& led_3 $end
$var wire 1 e& led_4 $end
$var wire 1 f& led_5 $end
$var wire 1 g& led_6 $end
$var wire 1 h& led_7 $end
$var wire 1 i& led_8 $end
$var wire 1 j& led_1_B $end
$var wire 1 k& led_1_G $end
$var wire 1 l& led_1_R $end
$var wire 1 m& led_2_B $end
$var wire 1 n& led_2_G $end
$var wire 1 o& led_2_R $end
$var wire 1 p& led_3_B $end
$var wire 1 q& led_3_G $end
$var wire 1 r& led_3_R $end
$var wire 1 s& led_4_B $end
$var wire 1 t& led_4_G $end
$var wire 1 u& led_4_R $end
$var wire 1 v& w3 $end
$var wire 1 w& w4 $end
$var wire 1 x& w5 $end
$var wire 1 y& w6 $end
$var wire 1 z& w7 $end
$var wire 1 {& w8 $end
$var wire 1 |& w9 $end
$var wire 1 }& w10 $end
$var wire 1 ~& w11 $end
$var wire 1 !' w12 $end
$var wire 1 "' w13 $end
$var wire 1 #' w14 $end
$var wire 1 $' w15 $end
$var wire 1 %' w16 $end
$var wire 1 &' w17 $end
$var wire 1 '' w18 $end
$var wire 1 (' w19 $end
$var wire 1 )' w20 $end
$var wire 1 *' w21 $end
$var wire 1 +' w22 $end
$var wire 1 ,' w23 $end
$var wire 1 -' w24 $end
$var wire 1 .' w25 $end
$var wire 1 /' w26 $end
$var wire 1 0' w27 $end
$var wire 1 1' w28 $end
$var wire 1 2' w29 $end
$var wire 1 3' w30 $end
$var wire 1 4' w31 $end
$var wire 1 5' w32 $end
$upscope $end
$scope module s15 $end
$var wire 1 6' i1 $end
$var wire 1 8' o1 $end
$upscope $end
$scope module s16 $end
$var wire 1 8' i1 $end
$var wire 1 <' i2 $end
$var wire 1 :' o1 $end
$upscope $end
$scope module s17 $end
$var wire 1 ;' i1 $end
$var wire 1 <' o1 $end
$upscope $end
$upscope $end
$upscope $end
$enddefinitions $end
#0
$dumpvars
0[
0\
0]
0^
1_
0`
1f
0g
0h
1O
0P
0Q
0e
0d
0c
0b
0a
0i
0p
0q
0r
0|
0s
0R
0S
0T
0U
0V
0W
0X
0Y
0Z
0:
0;
0<
0=
0>
0?
0@
0A
0B
0C
0D
0E
1F
1G
0H
0I
0J
1K
0L
0M
0N
0t
0u
0j
0v
0w
0x
0k
0y
0z
0{
0l
0m
0n
0o
10"
0N"
01"
02"
1F"
1-#
0/#
0D$
0;#
0:#
09#
08#
07#
06#
05#
04#
03#
02#
01#
00#
0J#
0I#
0H#
0G#
0F#
0E#
0D#
0C#
0B#
0A#
0@#
0?#
07%
06%
15%
0v$
0u$
0t$
0s$
0E&
03%
0^&
0F%
0E%
0D%
0C%
1G&
0H&
0I&
1L&
0K&
0J&
0|"
0D&
0B%
0A%
0@%
0?%
0;%
0:%
09%
08%
0F&
0u&
0t&
0s&
0r&
0q&
0p&
0o&
0n&
0m&
0l&
0k&
0j&
1`&
0c&
0b&
0d&
0e&
0f&
0m"
0g&
0h&
0i&
06'
18'
1:'
1<'
0;'
0G$
0H$
0I$
0J$
0K$
0L$
0M$
0N$
0O$
0P$
0Q$
0R$
0T"
0M"
0P"
0X&
0_&
0Y&
0Z&
0[&
0\&
0]&
06"
17"
18"
19"
0:"
1;"
0<"
1="
0>"
1?"
0@"
0A"
1B"
1C"
0D"
0E"
0Z"
0["
0\"
0]"
0a"
0`"
0_"
0^"
0b"
0c"
0d"
0e"
0f"
0g"
0h"
0i"
0j"
0k"
0l"
0n"
0o"
0p"
0q"
0r"
0s"
0t"
0"#
1##
0$#
1%#
0)#
0(#
0'#
0&#
1,#
0+#
0*#
0"&
0!&
0~%
0}%
0&&
0%&
1G%
1H%
0L%
0K%
0J%
0I%
0M%
0N%
0O%
0P%
0V#
0U#
0T#
0S#
0R#
0Q#
0P#
0O#
0N#
0M#
0L#
0K#
0b#
0a#
0`#
0_#
0^#
0]#
0\#
0[#
0Z#
0Y#
0X#
0W#
1c#
0d#
1e#
1f#
1g#
1h#
1i#
1j#
1k#
1l#
1m#
1n#
1o#
0p#
0q#
0r#
0s#
0t#
0u#
0v#
0w#
0x#
0y#
0z#
0{#
1|#
0?$
1}#
0~#
0!$
0"$
0#$
0$$
0%$
0&$
0'$
0($
0)$
0*$
0+$
0,$
0-$
0.$
0/$
00$
01$
02$
03$
04$
05$
06$
07$
08$
09$
0:$
0;$
0<$
0=$
0>$
0@$
0A$
0B$
0C$
0X$
0Y$
0Z$
0[$
0_$
0^$
0]$
0\$
0`$
0a$
0b$
0c$
0d$
0e$
0f$
0g$
0h$
0i$
0j$
0k$
0l$
0m$
0n$
0o$
0p$
0q$
0r$
1~$
1!%
0"%
0&%
0%%
0$%
0#%
0*%
0)%
0(%
0'%
0+%
0,%
0-%
0.%
0/%
00%
01%
02%
0~&
0!'
0"'
0#'
0$'
0%'
0&'
0''
0('
0)'
0*'
0+'
0,'
0-'
0.'
0/'
00'
01'
02'
03'
04'
05'
0Q%
0R%
0S%
0T%
0U%
0V%
0W%
0X%
1Y%
0Z%
0[%
0\%
0]%
0^%
0_%
0`%
0a%
0b%
0c%
0d%
0h%
0g%
0f%
0e%
0l%
0k%
0j%
0i%
0p%
0o%
0n%
0m%
0t%
0s%
0r%
0q%
0x%
0w%
0v%
0u%
0|%
0{%
0z%
0y%
0$&
0#&
0*&
0)&
0(&
0'&
0.&
0-&
0,&
0+&
02&
01&
00&
0/&
06&
05&
04&
03&
07&
0;&
0:&
09&
08&
0?&
0>&
0=&
0<&
0@&
0A&
0B&
0C&
1O&
0N&
0M&
0P&
1Q&
1R&
0S&
1T&
1U&
0V&
0W&
0v&
0w&
0x&
0y&
0z&
1{&
1|&
0}&
$end
#50000
0_
0F
0`&
0%#
0G%
0|#
0~$
0{&
#100000
1_
1R
1:
1F
1/#
1;#
17%
16%
1`&
1X&
1b"
1n"
1p"
1$#
1%#
1G%
1V#
1|#
1-$
1~$
1"%
1v&
1{&
#150000
0_
0F
0`&
0%#
0G%
0|#
0~$
0{&
#200000
1_
1`
1F
1N
1`&
16'
08'
0##
1%#
1G%
0H%
1|#
0}#
1~$
0!%
1{&
#250000
0_
0F
0`&
0%#
0G%
0|#
0~$
0{&
#300000
1_
1F
1`&
1%#
1G%
1|#
1~$
1{&
#350000
0_
0F
0`&
0%#
0G%
0|#
0~$
0{&
#400000
1_
1F
1`&
1%#
1G%
1|#
1~$
1{&
#450000
0_
0F
0`&
0%#
0G%
0|#
0~$
0{&
#500000
1_
1F
1`&
1%#
1G%
1|#
1~$
1{&
#550000
0_
0F
0`&
0%#
0G%
0|#
0~$
0{&
#600000
1_
1F
1`&
1%#
1G%
1|#
1~$
1{&
#650000
0_
0F
0`&
0%#
0G%
0|#
0~$
0{&
#700000
1_
1F
1`&
1%#
1G%
1|#
1~$
1{&
#750000
0_
0F
0`&
0%#
0G%
0|#
0~$
0{&
#800000
1_
1F
1`&
1%#
1G%
1|#
1~$
1{&
#850000
0_
0F
0`&
0%#
0G%
0|#
0~$
0{&
#900000
1_
0R
0:
1F
0/#
0;#
07%
06%
1`&
0X&
0b"
0n"
0p"
0$#
1%#
1G%
0V#
1|#
0-$
1~$
0"%
0v&
1{&
#950000
0_
0F
0`&
0%#
0G%
0|#
0~$
0{&
#1000000
1_
1F
1`&
1%#
1G%
1|#
1~$
1{&
#1050000
0_
0F
0`&
0%#
0G%
0|#
0~$
0{&
#1100000
1_
1F
1`&
1%#
1G%
1|#
1~$
1{&
#1150000
0_
0F
0`&
0%#
0G%
0|#
0~$
0{&
#1200000
1_
1g
1F
1L
1H&
0L&
1K&
1`&
1%#
0,#
1+#
1G%
1|#
1~$
0O&
1N&
0R&
1S&
0U&
1V&
1{&
#1250000
0_
0F
0`&
0%#
0G%
0|#
0~$
0{&
