Flowrian/_service/20181220233235_SimulateISim_201624506_LaunchPad_tb/LaunchPad_tb.vcd
$date
   Thu Dec 20 23:32:40 2018
$end
$version
  P.15xf
$end
$timescale
  1ps
$end
$scope module LaunchPad_tb $end
$var wire 1 ! Dout [3] $end
$var wire 1 " Dout [2] $end
$var wire 1 # Dout [1] $end
$var wire 1 $ Dout [0] $end
$var wire 1 % Pout $end
$var wire 1 & led_1 $end
$var wire 1 ' led_1_B $end
$var wire 1 ( led_1_G $end
$var wire 1 ) led_1_R $end
$var wire 1 * led_2 $end
$var wire 1 + led_2_B $end
$var wire 1 , led_2_G $end
$var wire 1 - led_2_R $end
$var wire 1 . led_3 $end
$var wire 1 / led_3_B $end
$var wire 1 0 led_3_G $end
$var wire 1 1 led_3_R $end
$var wire 1 2 led_4 $end
$var wire 1 3 led_4_B $end
$var wire 1 4 led_4_G $end
$var wire 1 5 led_4_R $end
$var wire 1 6 led_5 $end
$var wire 1 7 led_6 $end
$var wire 1 8 led_7 $end
$var wire 1 9 led_8 $end
$var reg 1 : BTN1 $end
$var reg 1 ; BTN2 $end
$var reg 1 < BTN3 $end
$var reg 1 = BTN4 $end
$var reg 1 > BTN5 $end
$var reg 1 ? BTN6 $end
$var reg 1 @ BTN7 $end
$var reg 1 A BTN8 $end
$var reg 1 B BTN9 $end
$var reg 1 C BTN_0 $end
$var reg 1 D BTN_sharp $end
$var reg 1 E BTN_star $end
$var reg 1 F CLK $end
$var reg 1 G Dip_1 $end
$var reg 1 H Dip_2 $end
$var reg 1 I Dip_3 $end
$var reg 1 J Dip_4 $end
$var reg 1 K Dip_6 $end
$var reg 1 L Dip_7 $end
$var reg 1 M Dip_8 $end
$var reg 1 N RST $end
$upscope $end
$enddefinitions $end
#0
$dumpvars
0$
0#
0"
0!
0%
0&
0'
0(
1:
0;
0<
0=
0>
0?
1@
0A
0B
0C
0D
0E
0F
0G
0H
1I
0J
0K
0L
0M
0N
0)
0*
0+
0,
0-
0.
0/
00
01
02
03
04
05
06
07
08
09
$end
#100000
1F
1N
#200000
0F
#300000
1&
1(
1F
#400000
0F
#500000
1F
1*
10
#600000
0F
#700000
1F
1.
14
#800000
0F
#900000
1F
1,
12
#1000000
0F
#1100000
1F
1)
15
16
#1200000
0F
#1300000
1F
1+
1/
17
#1400000
0&
0(
0:
0@
0F
0)
0*
0+
0,
0.
0/
00
02
04
05
06
07
#1500000
1F
#1600000
0F
#1700000
1F
#1800000
0F
#1900000
1;
1B
1F
#2000000
0F
#2100000
1'
1F
19
#2200000
0F
#2300000
1F
1+
18
#2400000
0F
#2500000
1F
1/
17
#2600000
0F
#2700000
1F
13
16
#2800000
0F
#2900000
1(
1F
12
#3000000
0F
#3100000
1F
1,
1.
#3200000
0F
#3300000
1F
1*
10
#3400000
0F
#3500000
0'
0(
0;
0B
1F
0*
0+
0,
0.
0/
00
02
03
06
07
08
09
#3600000
0F
#3700000
1F
#3800000
0F
#3900000
1<
1C
1F
#4000000
0F
#4100000
1&
1'
1F
19
#4200000
0F
#4300000
1(
1F
1*
1+
1/
18
#4400000
0F
#4500000
1F
1)
1,
1.
10
13
17
#4600000
0F
#4700000
1F
1-
11
12
14
16
#4800000
0F
#4900000
1F
02
15
06
#5000000
0F
#5100000
0'
0(
1F
0)
0+
0,
0-
0.
0/
00
01
03
04
05
07
#5200000
0F
#5300000
1'
1F
0*
08
#5400000
0F
#5500000
0&
1(
1F
1+
1/
09
#5600000
0F
#5700000
1F
1)
1,
10
13
#5800000
0<
0F
#5900000
1F
1-
11
14
#6000000
0F
#6100000
1F
15
#6200000
0F
#6300000
1&
0'
0(
1=
1F
0)
0+
0,
0-
1.
0/
00
01
03
04
05
16
18
#6400000
0F
#6500000
0&
1'
1F
1*
0.
12
06
17
08
19
#6600000
0F
#6700000
1&
1(
1F
0*
1+
1.
1/
02
16
07
18
09
#6800000
0F
#6900000
0&
1F
1)
1*
1,
0.
10
12
13
06
17
08
19
#7000000
0F
#7100000
1&
1F
0*
1-
1.
11
02
14
16
07
18
09
#7200000
0F
#7300000
0&
1F
1*
0.
12
15
06
17
08
19
#7400000
0F
#7500000
1&
0'
0(
1F
0)
0*
0+
0,
0-
1.
0/
00
01
02
03
04
05
16
07
18
09
#7600000
0F
#7700000
0&
1'
1F
1*
0.
12
06
17
08
19
#7800000
0F
#7900000
1&
1(
1F
0*
1+
1.
1/
02
16
07
18
09
#8000000
0F
#8100000
0&
1F
1)
1*
1,
0.
10
12
13
06
17
08
19
#8200000
0F
#8300000
0=
1F
0*
1-
11
02
14
07
09
#8400000
0F
#8500000
1F
15
#8600000
0F
#8700000
0'
0(
1F
0)
0+
0,
0-
0/
00
01
03
04
05
#8800000
0F
#8900000
1'
1F
#9000000
0F
#9100000
1(
1F
1+
1/
#9200000
0F
#9300000
1F
1)
1,
10
13
#9400000
0F
#9500000
1F
1-
11
14
#9600000
0F
#9700000
1F
15
#9800000
0F
#9900000
0'
0(
1F
0)
0+
0,
0-
0/
00
01
03
04
05
