Flowrian/_service/20181129215049_SimulateISim_201624506_PianoPlay_tb/PianoPlay_tb.vcd
$date
   Thu Nov 29 21:50:54 2018
$end
$version
  P.15xf
$end
$timescale
  1ps
$end
$scope module PianoPlay_tb $end
$var wire 1 - Dout $end
$var reg 4 " Bin [3:0] $end
$var reg 1 # CLK $end
$var reg 1 $ EN $end
$var reg 1 % RST $end
$scope module U0 $end
$var wire 1 & RST $end
$var wire 1 ' CLK $end
$var wire 1 ( Bin [3] $end
$var wire 1 ) Bin [2] $end
$var wire 1 * Bin [1] $end
$var wire 1 + Bin [0] $end
$var wire 1 , EN $end
$var wire 1 - Dout $end
$var wire 1 . w16 $end
$var wire 1 / w17 $end
$var wire 1 0 b3 [3] $end
$var wire 1 1 b3 [2] $end
$var wire 1 2 b3 [1] $end
$var wire 1 3 b3 [0] $end
$var wire 1 4 w3 $end
$var wire 1 5 w4 $end
$upscope $end
$upscope $end
$enddefinitions $end
#0
$dumpvars
0-
0*
0)
1(
1,
1&
1'
1+
1.
1/
13
02
01
10
b1001 "
1#
1$
1%
14
05
$end
#50000
0'
0.
0#
#100000
1'
1.
1#
#150000
0'
0.
0#
#200000
1*
0(
1'
1.
12
00
b11 "
1#
#250000
0'
0.
0#
#300000
0&
1'
1.
0/
1#
0%
#350000
0'
0.
0#
#400000
1)
1(
1'
0+
1.
03
11
10
b1110 "
1#
#450000
0'
0.
0#
#500000
1'
1.
1#
#550000
0'
0.
0#
#600000
0*
0)
1'
1.
02
01
b1000 "
1#
#650000
0'
0.
0#
#700000
1'
1.
1#
#750000
0'
0.
0#
#800000
1*
1'
1+
1.
13
12
b1011 "
1#
#850000
0'
0.
0#
#900000
1'
1.
1#
#950000
0'
0.
0#
#1000000
0*
0(
1'
0+
1.
03
02
00
b0 "
1#
#1050000
0'
0.
0#
#1100000
1'
1.
1#
#1150000
0'
0.
0#
#1200000
1'
1+
1.
13
b1 "
1#
#1250000
0'
0.
0#
#1300000
1'
1.
1#
#1350000
0'
0.
0#
#1400000
1'
1.
1#
#1450000
0'
0.
0#
#1500000
1'
1.
1#
#1550000
0'
0.
0#
#1600000
1(
1'
1.
10
b1001 "
1#
#1650000
0'
0.
0#
#1700000
1'
1.
1#
#1750000
0'
0.
0#
#1800000
1*
1)
1'
0+
1.
03
12
11
b1110 "
1#
#1850000
0'
0.
0#
#1900000
1'
1.
1#
#1950000
0'
0.
0#
#2000000
1'
1+
1.
13
b1111 "
1#
#2050000
0'
0.
0#
#2100000
1'
1.
1#
#2150000
0'
0.
0#
#2200000
0(
1'
0+
1.
03
00
b110 "
1#
#2250000
0'
0.
0#
#2300000
1'
1.
1#
#2350000
0'
0.
0#
#2400000
0*
0)
1(
1'
1+
1.
13
02
01
10
b1001 "
1#
#2450000
0'
0.
0#
#2500000
1'
1.
1#
#2550000
0'
0.
0#
#2600000
1*
1)
1'
0+
1.
03
12
11
b1110 "
1#
#2650000
0'
0.
0#
#2700000
1'
1.
1#
#2750000
0'
0.
0#
#2800000
0)
0(
1'
1.
01
00
b10 "
1#
#2850000
0'
0.
0#
#2900000
1'
1.
1#
#2950000
0'
0.
0#
#3000000
1)
1'
1+
1.
13
11
b111 "
1#
#3050000
0'
0.
0#
#3100000
1'
1.
1#
#3150000
0'
0.
0#
#3200000
0*
0)
1(
1'
1.
02
01
10
b1001 "
1#
#3250000
0'
0.
0#
#3300000
1'
1.
1#
#3350000
0'
0.
0#
#3400000
1)
0(
1'
0+
1.
03
11
00
b100 "
1#
#3450000
0'
0.
0#
#3500000
1'
1.
1#
#3550000
0'
0.
0#
#3600000
1'
1+
1.
13
b101 "
1#
#3650000
0'
0.
0#
#3700000
1'
1.
1#
#3750000
0'
0.
0#
#3800000
0)
1(
1'
0+
1.
03
01
10
b1000 "
1#
#3850000
0'
0.
0#
#3900000
1'
1.
1#
#3950000
0'
0.
0#
#4000000
1*
1)
1'
1.
12
11
b1110 "
1#
#4050000
0'
0.
0#
#4100000
1'
1.
1#
#4150000
0'
0.
0#
#4200000
0*
0)
0(
1'
1+
1.
13
02
01
00
b1 "
1#
#4250000
0'
0.
0#
#4300000
1'
1.
1#
#4350000
0'
0.
0#
#4400000
1*
1'
0+
1.
03
12
b10 "
1#
#4450000
0'
0.
0#
#4500000
1'
1.
1#
#4550000
0'
0.
0#
#4600000
0*
1)
1(
1'
1+
1.
13
02
11
10
b1101 "
1#
#4650000
0'
0.
0#
#4700000
1'
1.
1#
#4750000
0'
0.
0#
#4800000
0)
0(
1'
0+
1.
03
01
00
b0 "
1#
#4850000
0'
0.
0#
#4900000
1'
1.
1#
#4950000
0'
0.
0#
#5000000
1*
1'
1.
12
b10 "
1#
#5050000
0'
0.
0#
#5100000
1'
1.
1#
#5150000
0'
0.
0#
#5200000
1(
1'
1.
10
b1010 "
1#
#5250000
0'
0.
0#
#5300000
1'
1.
1#
#5350000
0'
0.
0#
#5400000
0*
1)
1'
1+
1.
13
02
11
b1101 "
1#
#5450000
0'
0.
0#
#5500000
1'
1.
1#
#5550000
0'
0.
0#
#5600000
0)
1'
0+
1.
03
01
b1000 "
1#
#5650000
0'
0.
0#
#5700000
1'
1.
1#
#5750000
0'
0.
0#
#5800000
1)
0(
1'
1.
11
00
b100 "
1#
#5850000
0'
0.
0#
#5900000
1'
1.
1#
#5950000
0'
0.
0#
#6000000
1*
0)
1'
1+
1.
13
12
01
b11 "
1#
#6050000
0'
0.
0#
#6100000
1'
1.
1#
#6150000
0'
0.
0#
#6200000
0*
1)
1'
1.
02
11
b101 "
1#
#6250000
0'
0.
0#
#6300000
1'
1.
1#
#6350000
0'
0.
0#
#6400000
1*
0)
1'
0+
1.
03
12
01
b10 "
1#
#6450000
0'
0.
0#
#6500000
1'
1.
1#
#6550000
0'
0.
0#
#6600000
1)
1'
1+
1.
13
11
b111 "
1#
#6650000
0'
0.
0#
#6700000
1'
1.
1#
#6750000
0'
0.
0#
#6800000
1'
1.
1#
#6850000
0'
0.
0#
#6900000
1'
1.
1#
#6950000
0'
0.
0#
#7000000
0*
0)
1'
0+
1.
03
02
01
b0 "
1#
#7050000
0'
0.
0#
#7100000
1'
1.
1#
#7150000
0'
0.
0#
#7200000
1*
1)
1'
1+
1.
13
12
11
b111 "
1#
#7250000
0'
0.
0#
#7300000
1'
1.
1#
#7350000
0'
0.
0#
#7400000
0)
1(
1'
0+
1.
03
01
10
b1010 "
1#
#7450000
0'
0.
0#
#7500000
1'
1.
1#
#7550000
0'
0.
0#
#7600000
0*
0(
1'
1+
1.
13
02
00
b1 "
1#
#7650000
0'
0.
0#
#7700000
1'
1.
1#
#7750000
0'
0.
0#
#7800000
1*
1(
1'
1.
12
10
b1011 "
1#
#7850000
0'
0.
0#
#7900000
1'
1.
1#
#7950000
0'
0.
0#
#8000000
0*
1)
1'
0+
1.
03
02
11
b1100 "
1#
#8050000
0'
0.
0#
#8100000
1'
1.
1#
#8150000
0'
0.
0#
#8200000
1*
0)
1'
1.
12
01
b1010 "
1#
#8250000
0'
0.
0#
#8300000
1'
1.
1#
#8350000
0'
0.
0#
#8400000
0*
1'
1.
02
b1000 "
1#
#8450000
0'
0.
0#
#8500000
1'
1.
1#
#8550000
0'
0.
0#
#8600000
1*
1)
0(
1'
1+
1.
13
12
11
00
b111 "
1#
#8650000
0'
0.
0#
#8700000
1'
1.
1#
#8750000
0'
0.
0#
#8800000
0)
1'
0+
1.
03
01
b10 "
1#
#8850000
0'
0.
0#
#8900000
1'
1.
1#
#8950000
0'
0.
0#
#9000000
0*
1'
1+
1.
13
02
b1 "
1#
#9050000
0'
0.
0#
#9100000
1'
1.
1#
#9150000
0'
0.
0#
#9200000
1*
1)
1'
1.
12
11
b111 "
1#
#9250000
0'
0.
0#
#9300000
1'
1.
1#
#9350000
0'
0.
0#
#9400000
0*
1(
1'
0+
1.
03
02
10
b1100 "
1#
#9450000
0'
0.
0#
#9500000
1'
1.
1#
#9550000
0'
0.
0#
#9600000
1*
0)
0(
1'
1+
1.
13
12
01
00
b11 "
1#
#9650000
0'
0.
0#
#9700000
1'
1.
1#
#9750000
0'
0.
0#
#9800000
1)
1(
1'
0+
1.
03
11
10
b1110 "
1#
#9850000
0'
0.
0#
#9900000
1'
1.
1#
#9950000
0'
0.
0#
