Flowrian/_service/20181209230019_SimulateISim_201624506_ToneConverter_tb/ToneConverter_tb.vcd
$date
   Sun Dec  9 23:00:23 2018
$end
$version
  P.15xf
$end
$timescale
  1ps
$end
$scope module ToneConverter_tb $end
$var wire 1 - D_out $end
$var reg 4 " B_in [3:0] $end
$var reg 1 # CLK $end
$var reg 1 $ EN $end
$var reg 1 % RST $end
$scope module U0 $end
$var wire 1 & B_in [3] $end
$var wire 1 ' B_in [2] $end
$var wire 1 ( B_in [1] $end
$var wire 1 ) B_in [0] $end
$var wire 1 * RST $end
$var wire 1 + CLK $end
$var wire 1 , EN $end
$var wire 1 - D_out $end
$var wire 1 ;! w5 $end
$var wire 1 :! w7 $end
$var wire 1 8! w8 $end
$var wire 1 7! w9 $end
$var wire 1 5! w14 $end
$var wire 1 4! w15 $end
$var wire 1 6! w17 $end
$var wire 1 ,! b15 [3] $end
$var wire 1 -! b15 [2] $end
$var wire 1 .! b15 [1] $end
$var wire 1 /! b15 [0] $end
$var wire 1 0! w18 $end
$var wire 1 '! w19 $end
$var wire 1 &! w20 $end
$var wire 1 (! w21 $end
$var wire 1 3! w16 $end
$var wire 1 2! w13 $end
$var wire 1 <! w12 $end
$var wire 1 1! w11 $end
$var wire 1 9! w6 $end
$scope module s0 $end
$var wire 1 &! clk $end
$var wire 1 '! rst $end
$var wire 1 (! en $end
$var wire 1 1! div_clk $end
$var reg 1 F buff $end
$var reg 20 G cnt [19:0] $end
$upscope $end
$scope module s1 $end
$var wire 1 &! clk $end
$var wire 1 '! rst $end
$var wire 1 (! en $end
$var wire 1 <! div_clk $end
$var reg 1 L buff $end
$var reg 20 M cnt [19:0] $end
$upscope $end
$scope module s2 $end
$var wire 1 &! clk $end
$var wire 1 '! rst $end
$var wire 1 (! en $end
$var wire 1 2! div_clk $end
$var reg 1 R buff $end
$var reg 20 S cnt [19:0] $end
$upscope $end
$scope module s3 $end
$var wire 1 &! clk $end
$var wire 1 '! rst $end
$var wire 1 (! en $end
$var wire 1 3! div_clk $end
$var reg 1 X buff $end
$var reg 20 Y cnt [19:0] $end
$upscope $end
$scope module s4 $end
$var wire 1 &! clk $end
$var wire 1 '! rst $end
$var wire 1 (! en $end
$var wire 1 4! div_clk $end
$var reg 1 ^ buff $end
$var reg 20 _ cnt [19:0] $end
$upscope $end
$scope module s5 $end
$var wire 1 &! clk $end
$var wire 1 '! rst $end
$var wire 1 (! en $end
$var wire 1 5! div_clk $end
$var reg 1 d buff $end
$var reg 20 e cnt [19:0] $end
$upscope $end
$scope module s6 $end
$var wire 1 &! clk $end
$var wire 1 '! rst $end
$var wire 1 (! en $end
$var wire 1 6! div_clk $end
$var reg 1 j buff $end
$var reg 20 k cnt [19:0] $end
$upscope $end
$scope module s7 $end
$var wire 1 &! clk $end
$var wire 1 '! rst $end
$var wire 1 (! en $end
$var wire 1 7! div_clk $end
$var reg 1 p buff $end
$var reg 20 q cnt [19:0] $end
$upscope $end
$scope module s8 $end
$var wire 1 &! clk $end
$var wire 1 '! rst $end
$var wire 1 (! en $end
$var wire 1 8! div_clk $end
$var reg 1 v buff $end
$var reg 20 w cnt [19:0] $end
$upscope $end
$scope module s9 $end
$var wire 1 &! clk $end
$var wire 1 '! rst $end
$var wire 1 (! en $end
$var wire 1 :! div_clk $end
$var reg 1 | buff $end
$var reg 20 } cnt [19:0] $end
$upscope $end
$scope module s10 $end
$var wire 1 &! clk $end
$var wire 1 '! rst $end
$var wire 1 (! en $end
$var wire 1 9! div_clk $end
$var reg 1 $! buff $end
$var reg 20 %! cnt [19:0] $end
$upscope $end
$scope module s11 $end
$var wire 1 &! clk $end
$var wire 1 '! rst $end
$var wire 1 (! en $end
$var wire 1 ;! div_clk $end
$var reg 1 *! buff $end
$var reg 20 +! cnt [19:0] $end
$upscope $end
$scope module s12 $end
$var wire 1 ,! B_in [3] $end
$var wire 1 -! B_in [2] $end
$var wire 1 .! B_in [1] $end
$var wire 1 /! B_in [0] $end
$var wire 1 0! D_out $end
$var wire 1 1! D1 $end
$var wire 1 2! D3 $end
$var wire 1 3! D4 $end
$var wire 1 4! D5 $end
$var wire 1 5! D6 $end
$var wire 1 6! D7 $end
$var wire 1 7! D8 $end
$var wire 1 8! D9 $end
$var wire 1 9! D0 $end
$var wire 1 :! D_star $end
$var wire 1 ;! D_sharp $end
$var wire 1 <! D2 $end
$var wire 1 =! w0 $end
$var wire 1 >! w1 $end
$var wire 1 ?! b2 [3] $end
$var wire 1 @! b2 [2] $end
$var wire 1 A! b2 [1] $end
$var wire 1 B! b2 [0] $end
$var wire 1 C! w4 $end
$var wire 1 D! w5 $end
$var wire 1 E! w6 $end
$var wire 1 F! w7 $end
$var wire 1 G! w8 $end
$var wire 1 H! w9 $end
$var wire 1 I! w10 $end
$var wire 1 J! w11 $end
$var wire 1 K! w12 $end
$var wire 1 L! w13 $end
$var wire 1 M! w14 $end
$var wire 1 N! w15 $end
$var wire 1 O! w16 $end
$var wire 1 P! w17 $end
$var wire 1 Q! b2_0_w3 $end
$var wire 1 R! b2_1_w18 $end
$var wire 1 S! b2_2_w19 $end
$var wire 1 T! b2_3_w20 $end
$var wire 1 U! b2_1_w21 $end
$var wire 1 V! b2_3_w23 $end
$var wire 1 W! b2_2_w22 $end
$upscope $end
$upscope $end
$upscope $end
$enddefinitions $end
#0
$dumpvars
0&
1*
1+
1,
1)
b11 "
1#
1$
1%
0-
1(
0'
0;!
0:!
08!
07!
05!
04!
06!
1/!
1.!
0-!
0,!
00!
1'!
1&!
1(!
03!
02!
0<!
01!
09!
0F
b0 G
0L
b0 M
0R
b0 S
0X
b0 Y
0^
b0 _
0d
b0 e
0j
b0 k
0p
b0 q
0v
b0 w
0|
b0 }
0$!
b0 %!
0*!
b0 +!
0=!
0>!
1B!
1A!
0@!
0?!
0C!
0D!
0E!
0F!
0G!
0H!
0I!
0J!
0K!
0L!
0M!
0N!
0O!
0P!
1Q!
1R!
0S!
0T!
1U!
0V!
0W!
$end
#300000
0*
0+
0#
0%
0'!
0&!
#600000
1+
1#
1&!
b1 G
b1 M
b1 S
b1 Y
b1 _
b1 e
b1 k
b1 q
b1 w
b1 }
b1 %!
b1 +!
#900000
0+
0#
0&!
#1200000
1+
1#
1&!
b10 G
b10 M
b10 S
b10 Y
b10 _
b10 e
b10 k
b10 q
b10 w
b10 }
b10 %!
b10 +!
#1500000
0+
0#
0&!
#1800000
1+
1#
1&!
b11 G
b11 M
b11 S
b11 Y
b11 _
b11 e
b11 k
b11 q
b11 w
b11 }
b11 %!
b11 +!
#2100000
0+
0#
0&!
#2400000
1+
1#
1&!
b100 G
b100 M
b100 S
b100 Y
b100 _
b100 e
b100 k
b100 q
b100 w
b100 }
b100 %!
b100 +!
#2700000
0+
0#
0&!
#3000000
1+
1#
1&!
b101 G
b101 M
b101 S
b101 Y
b101 _
b101 e
b101 k
b101 q
b101 w
b101 }
b101 %!
b101 +!
#3300000
0+
0#
0&!
#3600000
1+
1#
1&!
b110 G
b110 M
b110 S
b110 Y
b110 _
b110 e
b110 k
b110 q
b110 w
b110 }
b110 %!
b110 +!
#3900000
0+
0#
0&!
#4200000
1+
1#
1&!
b111 G
b111 M
b111 S
b111 Y
b111 _
b111 e
b111 k
b111 q
b111 w
b111 }
b111 %!
b111 +!
#4500000
0+
0#
0&!
#4800000
1+
1#
1&!
b1000 G
b1000 M
b1000 S
b1000 Y
b1000 _
b1000 e
b1000 k
b1000 q
b1000 w
b1000 }
b1000 %!
b1000 +!
#5100000
0+
0#
0&!
#5400000
1+
1#
1&!
b1001 G
b1001 M
b1001 S
b1001 Y
b1001 _
b1001 e
b1001 k
b1001 q
b1001 w
b1001 }
b1001 %!
b1001 +!
#5700000
0+
0#
0&!
#6000000
1+
1#
1&!
b1010 G
b1010 M
b1010 S
b1010 Y
b1010 _
b1010 e
b1010 k
b1010 q
b1010 w
b1010 }
b1010 %!
b1010 +!
#6300000
0+
0#
0&!
#6500000
0)
b100 "
0(
1'
0/!
0.!
1-!
0B!
0A!
1@!
0Q!
0R!
1S!
0U!
1W!
#6600000
1+
1#
1&!
b1011 G
b1011 M
b1011 S
b1011 Y
b1011 _
b1011 e
b1011 k
b1011 q
b1011 w
b1011 }
b1011 %!
b1011 +!
#6900000
0+
0#
0&!
#7200000
1+
1#
1&!
b1100 G
b1100 M
b1100 S
b1100 Y
b1100 _
b1100 e
b1100 k
b1100 q
b1100 w
b1100 }
b1100 %!
b1100 +!
#7500000
0+
0#
0&!
#7800000
1+
1#
1&!
b1101 G
b1101 M
b1101 S
b1101 Y
b1101 _
b1101 e
b1101 k
b1101 q
b1101 w
b1101 }
b1101 %!
b1101 +!
#8100000
0+
0#
0&!
#8400000
1+
1#
1&!
b1110 G
b1110 M
b1110 S
b1110 Y
b1110 _
b1110 e
b1110 k
b1110 q
b1110 w
b1110 }
b1110 %!
b1110 +!
#8700000
0+
0#
0&!
#9000000
1+
1#
1&!
b1111 G
b1111 M
b1111 S
b1111 Y
b1111 _
b1111 e
b1111 k
b1111 q
b1111 w
b1111 }
b1111 %!
b1111 +!
#9300000
0+
0#
0&!
#9600000
1+
1#
1&!
b10000 G
b10000 M
b10000 S
b10000 Y
b10000 _
b10000 e
b10000 k
b10000 q
b10000 w
b10000 }
b10000 %!
b10000 +!
