Flowrian/_service/20181129205707_SimulateISim_201624506_MUX4bit_4_tb/MUX4bit_4_tb.vcd
$date
   Thu Nov 29 20:57:11 2018
$end
$version
  P.15xf
$end
$timescale
  1ps
$end
$scope module MUX4bit_4_tb $end
$var wire 1 ! Dout [3] $end
$var wire 1 " Dout [2] $end
$var wire 1 # Dout [1] $end
$var wire 1 $ Dout [0] $end
$var reg 4 % D0 [3:0] $end
$var reg 4 & D1 [3:0] $end
$var reg 4 ' D2 [3:0] $end
$var reg 4 ( D3 [3:0] $end
$var reg 1 ) S0 $end
$var reg 1 * S1 $end
$upscope $end
$enddefinitions $end
#0
$dumpvars
0$
1#
0"
1!
b1010 %
b1001 &
b1000 '
b1000 (
0)
0*
$end
#100000
1$
0#
1)
#200000
0$
b1111 %
b1000 &
b10 '
b1 (
#400000
1#
1"
0!
b110 &
b111 (
#600000
1$
0#
0"
1!
b1001 %
b1101 &
b1111 '
b1101 (
0)
#800000
0$
1#
1"
0!
b110 %
b1011 &
b1110 '
#1000000
1$
0#
0"
0!
b1110 %
b1100 &
b1 '
b1100 (
1*
#1200000
1#
b10 %
b111 &
b11 '
b1010 (
#1400000
0#
1!
b1111 %
b10 &
b1001 '
b1110 (
#1600000
0#
0"
0!
b1 %
b1110 '
b100 (
0*
#1800000
1#
1!
b1011 %
b1010 &
b1100 '
b1101 (
#2000000
1$
1"
b1000 %
b1111 &
b1000 '
b1001 (
1)
#2200000
0#
1"
b0 &
b1110 '
b1101 (
1*
#2400000
1#
0!
b0 %
b1110 &
b111 '
b111 (
#2600000
1$
0"
1!
b1011 &
b0 '
b110 (
0*
#2800000
0$
0!
b1001 %
b10 &
b10 '
b11 (
#2900000
1$
0#
1!
0)
#3000000
0$
0!
b0 %
b1100 &
b1000 '
b1 (
#3200000
1$
1!
b1001 %
b1001 &
b111 '
b100 (
#3400000
0$
1#
b1010 %
b110 &
b10 '
b1001 (
#3600000
1$
0!
b11 %
b1101 '
b100 (
#3800000
0$
1!
b1010 %
b101 &
b1010 '
b1 (
#4000000
1$
0!
b11 %
b1100 &
b1000 '
b11 (
#4200000
0$
b10 %
b100 &
b1100 '
b1011 (
#4400000
1$
1"
b111 %
b101 &
b1111 '
b1100 (
#4600000
b1111 &
b1010 '
b11 (
#4800000
b110 &
b1110 '
b1001 (
#5000000
0"
b11 %
b0 &
b1010 '
b0 (
#5200000
0$
0#
1!
b1000 %
b1110 &
b1100 '
b1011 (
#5400000
1$
b1001 %
b1100 &
b111 '
b101 (
#5600000
0$
1"
b1100 %
b1011 &
b100 '
b1000 (
#5800000
0!
b100 %
b101 &
b1001 '
b1110 (
#6000000
1#
0"
b10 %
b1001 &
b10 '
b1000 (
#6200000
1!
b1010 %
b110 &
b0 '
b111 (
#6400000
1"
0!
b110 %
b111 &
b1001 '
b1 (
#6600000
1$
0"
1!
b1011 %
b11 &
b1000 '
b1110 (
#6800000
0$
0!
b10 %
b1001 &
b11 '
b1001 (
#7000000
1$
1"
1!
b1111 %
b1100 '
b100 (
#7200000
0"
b1011 %
b1001 '
b1111 (
#7400000
0$
0#
0!
b0 %
b11 &
b1011 '
b100 (
#7600000
1#
b10 %
b1001 &
b1000 '
b1101 (
#7800000
0#
1"
b100 %
b100 &
b1 '
b1111 (
#8000000
1#
0"
b10 %
b1010 &
b1110 '
b100 (
#8200000
b0 &
b100 '
b1011 (
#8400000
1$
1"
b111 %
b1011 &
b10 '
b1100 (
#8600000
b1010 &
b110 '
b1101 (
#8800000
0#
0"
b1 %
b101 '
b1100 (
#9000000
0$
b0 %
b110 &
b100 '
b110 (
#9200000
1"
1!
b1100 %
b11 &
b11 '
b1111 (
#9400000
1$
1#
0"
b1011 %
b1100 &
b10 '
b11 (
#9600000
0$
b1010 %
b101 &
b1001 '
b1 (
#9800000
1$
0#
b1001 %
b1111 &
b100 '
b1100 (
