Flowrian/_service/20181129213131_SimulateISim_201624506_LaunchPad_tb/LaunchPad_tb.vcd
$date
   Thu Nov 29 21:31:36 2018
$end
$version
  P.15xf
$end
$timescale
  1ps
$end
$scope module LaunchPad_tb $end
$var wire 1 ! Dout [3] $end
$var wire 1 " Dout [2] $end
$var wire 1 # Dout [1] $end
$var wire 1 $ Dout [0] $end
$var wire 1 % Pout $end
$var reg 1 & BTN1 $end
$var reg 1 ' BTN2 $end
$var reg 1 ( BTN3 $end
$var reg 1 ) BTN4 $end
$var reg 1 * BTN5 $end
$var reg 1 + BTN6 $end
$var reg 1 , BTN7 $end
$var reg 1 - BTN8 $end
$var reg 1 . BTN9 $end
$var reg 1 / BTN_0 $end
$var reg 1 0 BTN_sharp $end
$var reg 1 1 BTN_star $end
$var reg 1 2 CLK $end
$var reg 1 3 Dip_1 $end
$var reg 1 4 Dip_2 $end
$var reg 1 5 Dip_3 $end
$var reg 1 6 Dip_4 $end
$var reg 1 7 RST $end
$upscope $end
$enddefinitions $end
#0
$dumpvars
0$
0#
0"
0!
0%
0&
0'
0(
0)
0*
0+
0,
0-
0.
0/
00
01
12
13
04
05
06
17
$end
#50000
02
#100000
12
#150000
02
#200000
12
#250000
02
#300000
12
07
#350000
02
#400000
1&
12
#450000
02
#500000
12
#550000
02
#600000
12
#650000
02
#700000
12
#750000
02
#800000
0&
12
#850000
02
#900000
12
#950000
02
#1000000
12
#1050000
02
#1100000
12
#1150000
02
#1200000
1+
12
#1250000
02
#1300000
12
#1350000
02
#1400000
12
#1450000
02
#1500000
0+
12
#1550000
02
#1600000
12
14
#1650000
02
#1700000
12
#1750000
02
#1800000
12
#1850000
02
#1900000
1&
12
#1950000
02
#2000000
12
#2050000
02
#2100000
12
#2150000
02
#2200000
0&
12
#2250000
02
#2300000
12
#2350000
02
#2400000
12
16
#2450000
02
#2500000
12
#2550000
02
#2600000
12
#2650000
02
#2700000
1(
12
#2750000
02
#2800000
12
#2850000
02
#2900000
12
#2950000
02
#3000000
0(
12
#3050000
02
#3100000
12
#3150000
02
#3200000
1*
12
#3250000
02
#3300000
12
#3350000
02
#3400000
12
#3450000
02
#3500000
0*
12
#3550000
02
#3600000
12
#3650000
02
#3700000
1/
12
#3750000
02
#3800000
12
#3850000
02
#3900000
12
#3950000
02
#4000000
0/
12
#4050000
02
#4100000
12
#4150000
02
#4200000
10
12
#4250000
02
#4300000
12
#4350000
02
#4400000
00
12
