Flowrian/_service/20181129210844_SimulateISim_201624506_MUX4bit_16_tb/MUX4bit_16_tb.vcd
$date
   Thu Nov 29 21:08:50 2018
$end
$version
  P.15xf
$end
$timescale
  1ps
$end
$scope module MUX4bit_16_tb $end
$var wire 1 ! Dout [3] $end
$var wire 1 " Dout [2] $end
$var wire 1 # Dout [1] $end
$var wire 1 $ Dout [0] $end
$var reg 1 % S0 $end
$var reg 1 & S1 $end
$var reg 1 ' S2 $end
$var reg 1 ( S3 $end
$var reg 4 ) p0 [3:0] $end
$var reg 4 * p1 [3:0] $end
$var reg 4 + p10 [3:0] $end
$var reg 4 , p11 [3:0] $end
$var reg 4 - p12 [3:0] $end
$var reg 4 . p13 [3:0] $end
$var reg 4 / p14 [3:0] $end
$var reg 4 0 p15 [3:0] $end
$var reg 4 1 p2 [3:0] $end
$var reg 4 2 p3 [3:0] $end
$var reg 4 3 p4 [3:0] $end
$var reg 4 4 p5 [3:0] $end
$var reg 4 5 p6 [3:0] $end
$var reg 4 6 p7 [3:0] $end
$var reg 4 7 p8 [3:0] $end
$var reg 4 8 p9 [3:0] $end
$upscope $end
$enddefinitions $end
#0
$dumpvars
1$
0#
1"
0!
0%
0&
0'
0(
b101 )
b1010 *
b1111 +
b1 ,
b11 -
b1011 .
b1 /
b1001 0
b0 1
b1 2
b1101 3
b100 4
b100 5
b1111 6
b11 7
b110 8
$end
#200000
1$
1#
0"
1!
1%
b1011 *
b0 +
b101 ,
b1110 -
b1001 .
b111 /
b1111 0
b1000 1
b1010 2
b1010 3
b1010 4
b1101 5
b1110 6
b10 8
#400000
1$
0#
1"
0%
1&
b111 )
b101 *
b101 +
b1101 ,
b1 -
b1100 .
b1110 /
b1001 0
b1101 1
b10 2
b1011 3
b111 4
b1010 5
b1010 6
b111 7
b11 8
#600000
0$
1#
1"
0!
1%
b1 )
b1101 *
b10 +
b1010 ,
b1000 -
b110 .
b1 /
b1000 0
b100 1
b110 2
b1000 3
b0 4
b10 5
b1001 6
b10 7
b100 8
#800000
0$
0#
1"
0!
0%
0&
1'
b101 )
b11 *
b1111 +
b1100 ,
b1110 -
b101 .
b11 /
b1100 0
b1101 2
b100 3
b111 4
b1010 5
b0 6
b1010 7
b1010 8
#1000000
1$
1#
1%
b1101 )
b1100 *
b111 +
b10 ,
b1010 -
b1011 .
b1110 /
b10 0
b10 1
b1111 2
b10 3
b1 5
b1 6
b1100 7
b1011 8
#1200000
0$
1#
0"
0%
1&
b11 )
b100 *
b1001 +
b1111 ,
b100 .
b1001 /
b1101 0
b11 1
b1100 2
b111 3
b101 4
b10 5
b1010 6
b1000 7
b1111 8
#1400000
0!
1%
b10 )
b1110 *
b1101 +
b1001 ,
b11 -
b1000 /
b1000 0
b1101 1
b11 2
b1000 3
b1011 4
b11 5
b10 6
b1 7
b1001 8
#1600000
1$
1#
1"
0!
0%
0&
0'
1(
b100 )
b101 *
b110 +
b1100 ,
b110 -
b111 .
b110 /
b1101 0
b1000 1
b101 2
b0 3
b0 4
b1101 5
b11 6
b111 7
b1111 8
#1800000
0"
0!
1%
b1 )
b1100 *
b11 +
b1 ,
b0 .
b101 /
b110 0
b1101 1
b1110 2
b1011 3
b1110 5
b10 6
b11 7
b11 8
#2000000
0#
1"
0%
1&
b1001 )
b101 *
b101 +
b1101 ,
b10 -
b10 .
b100 /
b1011 0
b11 1
b110 2
b11 3
b100 4
b10 5
b1111 6
b110 7
b1 8
#2200000
0$
1!
1%
b1011 )
b1 *
b1111 +
b1100 ,
b111 -
b11 .
b1110 /
b11 0
b1010 2
b1011 3
b1010 5
b1 6
b111 7
b100 8
#2400000
1$
1#
0"
0!
0%
0&
1'
b10 )
b111 *
b1001 +
b1101 ,
b11 -
b1000 .
b1100 /
b101 0
b1111 1
b1101 2
b1110 3
b11 4
b1000 5
b1100 6
b1110 7
b1 8
#2600000
0$
1"
1%
b1101 )
b110 *
b1011 +
b1101 -
b110 .
b1010 /
b1001 0
b101 1
b1011 2
b110 3
b1110 4
b11 5
b11 6
b0 7
b0 8
#2800000
1$
0#
1"
0!
0%
1&
b11 )
b1001 *
b1101 +
b1011 ,
b0 -
b1010 .
b101 /
b1111 0
b1011 1
b10 2
b11 3
b111 4
b1001 5
b1111 6
b101 7
b1111 8
#3000000
0$
1#
1!
1%
b1011 )
b1000 *
b1 ,
b111 -
b1 /
b1110 0
b10 1
b1011 2
b110 3
b10 4
b10 5
b1 6
b10 8
#3200000
0"
0&
b1101 )
b111 *
b1 +
b111 ,
b1 -
b101 /
b10 0
b100 1
b1101 2
b1101 3
b11 4
b1000 5
b1010 6
b0 8
#3400000
1$
0#
1"
0!
b111 )
b1011 *
b11 +
b1001 ,
b1011 -
b101 .
b1001 /
b101 0
b1001 1
b1010 2
b1011 3
b1111 4
b101 5
b0 6
b1000 7
b110 8
#3600000
b1 )
b110 *
b1010 +
b100 ,
b0 -
b1010 /
b1100 0
b1111 1
b1111 2
b0 3
b1001 4
b1101 5
b1110 6
b101 7
b1000 8
#3800000
1#
0"
b110 )
b101 *
b1101 +
b111 ,
b1101 -
b11 .
b1110 /
b1000 0
b101 1
b1101 2
b1011 3
b1010 4
b1 5
b1011 6
b11 7
#4000000
1"
1!
b111 )
b1 *
b1011 +
b11 ,
b1110 -
b1111 .
b1011 /
b0 0
b1000 1
b1011 2
b1 3
b10 4
b1000 5
b1010 6
b110 7
b0 8
#4200000
0!
b10 )
b0 *
b1111 +
b1000 ,
b100 -
b111 .
b1101 /
b111 0
b10 1
b111 2
b1100 3
b1100 4
b1010 5
b1101 7
b10 8
#4400000
b1001 )
b101 *
b1100 +
b1111 ,
b1101 -
b100 /
b1100 0
b1 1
b1111 2
b1001 3
b0 4
b1101 5
b10 6
b1100 7
b0 8
#4600000
0#
0"
b0 )
b1011 *
b1100 ,
b1100 -
b1 .
b110 /
b11 0
b1101 2
b1010 3
b1110 4
b10 5
b0 6
b1010 7
b100 8
#4800000
1#
1!
b1100 )
b1001 *
b1101 +
b1101 ,
b111 -
b1011 .
b111 /
b110 0
b1100 1
b10 2
b1101 3
b0 4
b110 5
b11 6
b1 7
b1001 8
#5000000
0$
b111 )
b0 *
b1 +
b0 ,
b1110 -
b1010 .
b1011 /
b1011 0
b0 2
b110 3
b110 4
b1100 5
b1011 6
b101 8
#5200000
0#
0!
b1110 )
b1000 *
b11 +
b111 ,
b1011 -
b0 .
b111 /
b1101 0
b110 1
b1011 2
b111 3
b1111 4
b1010 5
b110 6
b1101 7
b0 8
#5400000
1"
b1001 )
b0 *
b0 +
b101 ,
b1100 -
b100 .
b1111 /
b100 0
b111 1
b0 2
b1011 3
b100 4
b111 5
b1001 6
b1110 7
b101 8
#5600000
1#
1!
b1101 )
b10 *
b0 ,
b1110 .
b1011 /
b1011 0
b1100 1
b1101 2
b1100 3
b110 4
b1 5
b101 6
b1111 8
#5800000
1$
0#
b100 )
b1010 *
b1010 +
b10 ,
b100 -
b1101 .
b101 /
b0 0
b1 1
b11 2
b0 3
b111 4
b1101 5
b0 6
b110 7
b100 8
#6000000
0$
0"
0!
b1110 )
b11 *
b1111 +
b100 ,
b101 -
b0 .
b1011 /
b111 0
b100 1
b1110 2
b111 3
b1001 4
b11 5
b110 6
b111 7
b1000 8
#6200000
1"
1!
b100 )
b101 *
b111 +
b1 ,
b111 -
b1100 .
b1101 /
b1010 1
b111 2
b1 4
b1101 5
b1101 6
b1 7
b0 8
#6400000
1$
0"
0!
b1111 )
b1110 *
b10 +
b101 ,
b1111 -
b1 .
b1110 /
b1110 0
b110 1
b1 2
b11 3
b110 5
b1111 6
b1000 7
b100 8
#6600000
0$
b0 )
b110 *
b100 +
b11 -
b0 .
b1010 /
b1111 0
b0 1
b1010 3
b11 4
b101 5
b11 7
b1010 8
#6800000
1$
1"
1!
b1110 )
b1 *
b0 +
b11 ,
b1000 -
b1101 .
b10 /
b1101 0
b110 1
b1111 2
b100 3
b101 4
b1101 5
b1100 6
b1 7
b1 8
#7000000
0$
1#
0"
b1000 )
b110 *
b100 +
b1111 ,
b1 -
b1010 .
b101 /
b1000 0
b1 1
b10 2
b0 3
b100 4
b111 5
b1111 6
b100 8
#7200000
1$
0#
0!
b1001 )
b1111 *
b1000 +
b1011 -
b1 .
b1110 /
b1101 0
b1010 1
b1110 3
b110 4
b1101 5
b1111 7
b10 8
#7400000
1#
1!
b1110 )
b1001 *
b100 +
b1001 ,
b111 -
b1011 .
b1001 /
b1110 0
b11 1
b1100 2
b111 3
b1011 4
b100 5
b1110 6
b1 7
b1110 8
#7600000
1"
b101 )
b1011 *
b11 +
b1000 ,
b1 -
b1111 .
b111 /
b0 0
b1111 1
b111 2
b101 3
b1110 4
b1 6
b11 7
b1011 8
#7800000
0$
0#
0"
0!
b0 )
b10 *
b1001 +
b101 ,
b1011 -
b0 .
b1011 /
b10 0
b11 1
b1101 2
b11 3
b10 4
b101 6
b111 7
b111 8
#8000000
1$
1#
b1000 )
b1011 *
b1000 +
b1 ,
b100 -
b11 .
b1110 0
b111 1
b1111 3
b1100 4
b1 5
b1101 7
b1110 8
#8200000
0$
b110 )
b1100 +
b10 .
b1000 /
b111 0
b1010 1
b1111 2
b10 3
b0 4
b110 5
b1010 6
b0 7
b111 8
#8400000
b1011 )
b1001 *
b1001 +
b10 ,
b11 -
b1111 /
b1 0
b1111 1
b1010 2
b1001 3
b1110 4
b101 5
b100 6
b11 7
b1010 8
#8600000
b1101 )
b1010 *
b11 +
b11 ,
b1111 -
b1101 /
b111 0
b1000 1
b1101 2
b100 3
b1011 4
b11 5
b1010 6
b111 7
b10 8
#8800000
1!
b101 )
b1111 *
b1 +
b100 ,
b1110 -
b1010 .
b1111 0
b110 1
b111 2
b111 3
b1 4
b1001 5
b110 6
b1110 7
#9000000
1$
0!
b11 )
b110 *
b0 +
b110 ,
b1100 -
b11 .
b1 /
b1 0
b1010 1
b11 2
b100 3
b110 4
b1 5
b10 6
b1010 7
b0 8
#9200000
0$
0#
1"
1!
b1100 )
b1001 *
b1001 +
b1001 ,
b1 -
b1100 .
b101 /
b1100 0
b0 2
b1001 3
b101 4
b10 5
b101 6
b10 7
b1111 8
#9400000
0!
b10 )
b1110 *
b111 +
b111 ,
b100 .
b1 /
b1111 0
b111 1
b1000 2
b1110 3
b1010 4
b111 5
b1100 6
b101 7
b1110 8
#9600000
1$
b11 *
b100 +
b1001 ,
b1011 -
b101 .
b0 /
b101 0
b11 1
b1010 2
b0 3
b110 4
b11 6
b1111 7
b1011 8
#9800000
0"
1!
b110 )
b1101 *
b1 +
b101 ,
b10 -
b1001 .
b1000 0
b1001 1
b111 2
b101 3
b1110 4
b101 5
b1 6
b101 7
b101 8
