Flowrian/_service/20181122210134_SimulateISim_201624506_ToneConverter_tb/ToneConverter_tb.vcd
$date
   Thu Nov 22 21:01:39 2018
$end
$version
  P.15xf
$end
$timescale
  1ps
$end
$scope module ToneConverter_tb $end
$var wire 1 ! D_out $end
$var reg 4 " B_in [3:0] $end
$var reg 1 # CLK $end
$var reg 1 $ EN $end
$var reg 1 % RST $end
$upscope $end
$enddefinitions $end
#0
$dumpvars
0!
b10 "
1#
1$
1%
$end
#100000
0#
#200000
b1100 "
1#
0%
#300000
0#
#400000
b0 "
1#
#500000
0#
#600000
b1 "
1#
#700000
0#
#800000
b1011 "
1#
#900000
0#
#1000000
b1001 "
1#
#1100000
0#
#1200000
b1011 "
1#
#1300000
0#
#1400000
b100 "
1#
#1500000
0#
#1600000
b1101 "
1#
#1700000
0#
#1800000
1#
#1900000
0#
#2000000
b1 "
1#
#2100000
0#
#2200000
b1000 "
1#
#2300000
0#
#2400000
b101 "
1#
#2500000
0#
#2600000
b1011 "
1#
#2700000
0#
#2800000
b1010 "
1#
#2900000
0#
#3000000
b1111 "
1#
#3100000
0#
#3200000
1#
#3300000
0#
#3400000
b1001 "
1#
#3500000
0#
#3600000
b110 "
1#
#3700000
0#
#3800000
b1110 "
1#
#3900000
0#
#4000000
b10 "
1#
#4100000
0#
#4200000
b1111 "
1#
#4300000
0#
#4400000
b1 "
1#
#4500000
0#
#4600000
b1011 "
1#
#4700000
0#
#4800000
b1000 "
1#
#4900000
0#
#5000000
1#
#5100000
0#
#5200000
b0 "
1#
#5300000
0#
#5400000
1#
#5500000
0#
#5600000
b1001 "
1#
#5700000
0#
#5800000
b0 "
1#
#5900000
0#
#6000000
b1001 "
1#
#6100000
0#
#6200000
b1010 "
1#
#6300000
0#
#6400000
b11 "
1#
#6500000
0#
#6600000
b1010 "
1#
#6700000
0#
#6800000
b11 "
1#
#6900000
0#
#7000000
b10 "
1#
#7100000
0#
#7200000
b111 "
1#
#7300000
0#
#7400000
1#
#7500000
0#
#7600000
1#
#7700000
0#
#7800000
b11 "
1#
#7900000
0#
#8000000
b1000 "
1#
#8100000
0#
#8200000
b1001 "
1#
#8300000
0#
#8400000
b1100 "
1#
#8500000
0#
#8600000
b100 "
1#
#8700000
0#
#8800000
b10 "
1#
#8900000
0#
#9000000
b1010 "
1#
#9100000
0#
#9200000
b110 "
1#
#9300000
0#
#9400000
b1011 "
1#
#9500000
0#
#9600000
b10 "
1#
#9700000
0#
#9800000
b1111 "
1#
