Flowrian/_service/20181129202104_SimulateISim_201624506_Decoder4bits_tb/Decoder4bits_tb.vcd
$date
   Thu Nov 29 20:21:09 2018
$end
$version
  P.15xf
$end
$timescale
  1ps
$end
$scope module Decoder4bits_tb $end
$var wire 1 ! p1 $end
$var wire 1 " p10 $end
$var wire 1 # p11 $end
$var wire 1 $ p12 $end
$var wire 1 % p13 $end
$var wire 1 & p14 $end
$var wire 1 ' p15 $end
$var wire 1 ( p16 $end
$var wire 1 ) p2 $end
$var wire 1 * p3 $end
$var wire 1 + p4 $end
$var wire 1 , p5 $end
$var wire 1 - p6 $end
$var wire 1 . p7 $end
$var wire 1 / p8 $end
$var wire 1 0 p9 $end
$var reg 4 1 Din [3:0] $end
$upscope $end
$enddefinitions $end
#0
$dumpvars
1!
0"
0#
0$
0%
0&
0'
0(
0)
b0 1
0*
0+
0,
0-
0.
0/
00
$end
#200000
0!
1)
b1 1
#400000
1!
0)
b0 1
#600000
0!
b10 1
1*
#800000
1!
b0 1
0*
#1000000
0!
0)
b11 1
1+
#1200000
1!
b0 1
0+
#1400000
0!
b100 1
1,
#1600000
1!
b0 1
0,
#1800000
0!
0)
b101 1
1-
#2000000
1!
b0 1
0-
#2200000
0!
b110 1
0*
1.
#2400000
1!
b0 1
0.
#2600000
0!
0)
b111 1
0+
0-
1/
#2800000
1!
b0 1
0/
#3000000
0!
b1000 1
10
#3200000
1!
b0 1
00
#3400000
0!
1"
0)
b1001 1
#3600000
1!
0"
b0 1
#3800000
0!
1#
b1010 1
0*
#4000000
1!
0#
b0 1
#4200000
0!
0"
1$
0)
b1011 1
0+
#4400000
1!
0$
b0 1
#4600000
0!
1%
b1100 1
0,
#4800000
1!
0%
b0 1
#5000000
0!
0"
1&
0)
b1101 1
0-
#5200000
1!
0&
b0 1
#5400000
0!
0#
1'
b1110 1
0*
0.
#5600000
1!
0'
b0 1
#5800000
0!
0"
0$
0&
1(
0)
b1111 1
0+
0-
0/
#6000000
1!
0(
b0 1
