Flowrian/_service/20181122205546_SimulateISim_201624506_ToneConverter_tb/ToneConverter_tb.vcd
$date
   Thu Nov 22 20:55:51 2018
$end
$version
  P.15xf
$end
$timescale
  1ps
$end
$scope module ToneConverter_tb $end
$var wire 1 ! D_out $end
$var reg 4 " B_in [3:0] $end
$var reg 1 # CLK $end
$var reg 1 $ EN $end
$var reg 1 % RST $end
$upscope $end
$enddefinitions $end
#0
$dumpvars
b1 "
1#
1$
1%
0!
$end
#100000
0%
#200000
b1111 "
0#
#400000
b100 "
1#
#600000
b1101 "
0#
#800000
b0 "
1#
#1000000
0#
#1200000
b101 "
1#
#1400000
b1100 "
0#
#1600000
b1110 "
1#
#1800000
0#
#2000000
b110 "
1#
#2200000
b111 "
0#
#2400000
b1010 "
1#
#2600000
b101 "
0#
#2800000
b1 "
1#
#3000000
b111 "
0#
#3200000
b10 "
1#
#3400000
0#
#3600000
1#
#3800000
b100 "
0#
#4000000
b10 "
1#
#4200000
b1111 "
0#
#4400000
b11 "
1#
#4600000
b0 "
0#
#4800000
b1 "
1#
#5000000
b1101 "
0#
#5200000
b0 "
1#
#5400000
b1011 "
0#
#5600000
b10 "
1#
#5800000
b1 "
0#
#6000000
b1001 "
1#
#6200000
0#
#6400000
b1111 "
1#
#6600000
0#
#6800000
b1110 "
1#
#7000000
b1 "
0#
#7200000
b110 "
1#
#7400000
b1101 "
0#
#7600000
b11 "
1#
#7800000
b111 "
0#
#8000000
b101 "
1#
#8200000
b111 "
0#
#8400000
b1100 "
1#
#8600000
b1000 "
0#
#8800000
b1101 "
1#
#9000000
b1001 "
0#
#9200000
b111 "
1#
#9400000
b1 "
0#
#9600000
b1001 "
1#
#9800000
b1111 "
0#
