Flowrian/_service/20181129205146_SimulateISim_201624506_Mux12bit_4_tb/Mux12bit_4_tb.vcd
$date
   Thu Nov 29 20:51:50 2018
$end
$version
  P.15xf
$end
$timescale
  1ps
$end
$scope module Mux12bit_4_tb $end
$var wire 1 ! D_out $end
$var reg 4 " B_in [3:0] $end
$var reg 1 # D0 $end
$var reg 1 $ D1 $end
$var reg 1 % D2 $end
$var reg 1 & D3 $end
$var reg 1 ' D4 $end
$var reg 1 ( D5 $end
$var reg 1 ) D6 $end
$var reg 1 * D7 $end
$var reg 1 + D8 $end
$var reg 1 , D9 $end
$var reg 1 - D_sharp $end
$var reg 1 . D_star $end
$upscope $end
$enddefinitions $end
#0
$dumpvars
0!
b11 "
1#
0$
0%
0&
0'
0(
0)
0*
0+
0,
0-
0.
$end
#400000
b1 "
#600000
b1011 "
#700000
1&
1)
#800000
b1 "
#1000000
b1100 "
#1200000
b1000 "
#1400000
b11 "
#1600000
b1 "
#1800000
b1001 "
#2000000
b1 "
#2200000
b1000 "
#2400000
b101 "
#2600000
1!
b1101 "
#2800000
0!
b1000 "
#3000000
1!
b1101 "
#3200000
0!
b10 "
#3400000
b1110 "
#3600000
1!
b1010 "
#3800000
0!
b11 "
#4000000
b0 "
#4200000
b111 "
#4400000
b10 "
#4600000
b1 "
#4800000
1!
b1010 "
#5000000
0!
b1110 "
#5400000
b1100 "
#5600000
0!
b1111 "
#5800000
1!
b100 "
#6000000
0!
b11 "
#6200000
b1110 "
#6400000
b1 "
#6800000
b1100 "
#7000000
0!
b111 "
#7200000
b11 "
#7400000
b1111 "
#7600000
b10 "
#7800000
1!
b1010 "
#8000000
0!
b10 "
#8200000
b1110 "
#8400000
1!
b1010 "
#8600000
0!
b1 "
#8800000
b0 "
#9000000
1!
b1010 "
#9200000
0!
b1001 "
#9400000
b101 "
#9600000
0!
b110 "
#9800000
1!
b1010 "
