Flowrian/_service/20181122210353_SimulateISim_201624506_ToneConverter_tb/ToneConverter_tb.vcd
$date
   Thu Nov 22 21:03:58 2018
$end
$version
  P.15xf
$end
$timescale
  1ps
$end
$scope module ToneConverter_tb $end
$var wire 1 - D_out $end
$var reg 4 " B_in [3:0] $end
$var reg 1 # CLK $end
$var reg 1 $ EN $end
$var reg 1 % RST $end
$scope module U0 $end
$var wire 1 & B_in [3] $end
$var wire 1 ' B_in [2] $end
$var wire 1 ( B_in [1] $end
$var wire 1 ) B_in [0] $end
$var wire 1 * RST $end
$var wire 1 + CLK $end
$var wire 1 , EN $end
$var wire 1 - D_out $end
$var wire 1 )! w5 $end
$var wire 1 #! w6 $end
$var wire 1 { w7 $end
$var wire 1 u w8 $end
$var wire 1 o w9 $end
$var wire 1 E w11 $end
$var wire 1 K w12 $end
$var wire 1 Q w13 $end
$var wire 1 c w14 $end
$var wire 1 ] w15 $end
$var wire 1 W w16 $end
$var wire 1 i w17 $end
$var wire 1 : b15 [3] $end
$var wire 1 ; b15 [2] $end
$var wire 1 < b15 [1] $end
$var wire 1 = b15 [0] $end
$var wire 1 > w18 $end
$var wire 1 '! w19 $end
$var wire 1 &! w20 $end
$var wire 1 (! w21 $end
$scope module s0 $end
$var wire 1 &! clk $end
$var wire 1 '! rst $end
$var wire 1 (! en $end
$var wire 1 E div_clk $end
$var reg 1 F buff $end
$var reg 20 G cnt [19:0] $end
$upscope $end
$scope module s1 $end
$var wire 1 &! clk $end
$var wire 1 '! rst $end
$var wire 1 (! en $end
$var wire 1 K div_clk $end
$var reg 1 L buff $end
$var reg 20 M cnt [19:0] $end
$upscope $end
$scope module s2 $end
$var wire 1 &! clk $end
$var wire 1 '! rst $end
$var wire 1 (! en $end
$var wire 1 Q div_clk $end
$var reg 1 R buff $end
$var reg 20 S cnt [19:0] $end
$upscope $end
$scope module s3 $end
$var wire 1 &! clk $end
$var wire 1 '! rst $end
$var wire 1 (! en $end
$var wire 1 W div_clk $end
$var reg 1 X buff $end
$var reg 20 Y cnt [19:0] $end
$upscope $end
$scope module s4 $end
$var wire 1 &! clk $end
$var wire 1 '! rst $end
$var wire 1 (! en $end
$var wire 1 ] div_clk $end
$var reg 1 ^ buff $end
$var reg 20 _ cnt [19:0] $end
$upscope $end
$scope module s5 $end
$var wire 1 &! clk $end
$var wire 1 '! rst $end
$var wire 1 (! en $end
$var wire 1 c div_clk $end
$var reg 1 d buff $end
$var reg 20 e cnt [19:0] $end
$upscope $end
$scope module s6 $end
$var wire 1 &! clk $end
$var wire 1 '! rst $end
$var wire 1 (! en $end
$var wire 1 i div_clk $end
$var reg 1 j buff $end
$var reg 20 k cnt [19:0] $end
$upscope $end
$scope module s7 $end
$var wire 1 &! clk $end
$var wire 1 '! rst $end
$var wire 1 (! en $end
$var wire 1 o div_clk $end
$var reg 1 p buff $end
$var reg 20 q cnt [19:0] $end
$upscope $end
$scope module s8 $end
$var wire 1 &! clk $end
$var wire 1 '! rst $end
$var wire 1 (! en $end
$var wire 1 u div_clk $end
$var reg 1 v buff $end
$var reg 20 w cnt [19:0] $end
$upscope $end
$scope module s9 $end
$var wire 1 &! clk $end
$var wire 1 '! rst $end
$var wire 1 (! en $end
$var wire 1 { div_clk $end
$var reg 1 | buff $end
$var reg 20 } cnt [19:0] $end
$upscope $end
$scope module s10 $end
$var wire 1 &! clk $end
$var wire 1 '! rst $end
$var wire 1 (! en $end
$var wire 1 #! div_clk $end
$var reg 1 $! buff $end
$var reg 20 %! cnt [19:0] $end
$upscope $end
$scope module s11 $end
$var wire 1 &! clk $end
$var wire 1 '! rst $end
$var wire 1 (! en $end
$var wire 1 )! div_clk $end
$var reg 1 *! buff $end
$var reg 20 +! cnt [19:0] $end
$upscope $end
$upscope $end
$upscope $end
$enddefinitions $end
#0
$dumpvars
1*
1+
1,
0)
1(
0'
0&
0-
b10 "
1#
1$
1%
0)!
0#!
0{
0u
0o
0E
0K
0Q
0c
0]
0W
0i
0=
1<
0;
0:
0>
1'!
1&!
1(!
0F
b0 G
0L
b0 M
0R
b0 S
0X
b0 Y
0^
b0 _
0d
b0 e
0j
b0 k
0p
b0 q
0v
b0 w
0|
b0 }
0$!
b0 %!
0*!
b0 +!
$end
#100000
0+
0#
0&!
#200000
0*
1+
0(
1'
1&
b1100 "
1#
0%
0<
1;
1:
0'!
1&!
b1 G
b1 M
b1 S
b1 Y
b1 _
b1 e
b1 k
b1 q
b1 w
b1 }
b1 %!
b1 +!
#300000
0+
0#
0&!
#400000
1+
0'
0&
b0 "
1#
0;
0:
1&!
b10 G
b10 M
b10 S
b10 Y
b10 _
b10 e
b10 k
b10 q
b10 w
b10 }
b10 %!
b10 +!
#500000
0+
0#
0&!
#600000
1+
1)
b1 "
1#
1=
1&!
b11 G
b11 M
b11 S
b11 Y
b11 _
b11 e
b11 k
b11 q
b11 w
b11 }
b11 %!
b11 +!
#700000
0+
0#
0&!
#800000
1+
1(
1&
b1011 "
1#
1<
1:
1&!
b100 G
b100 M
b100 S
b100 Y
b100 _
b100 e
b100 k
b100 q
b100 w
b100 }
b100 %!
b100 +!
#900000
0+
0#
0&!
#1000000
1+
0(
b1001 "
1#
0<
1&!
b101 G
b101 M
b101 S
b101 Y
b101 _
b101 e
b101 k
b101 q
b101 w
b101 }
b101 %!
b101 +!
#1100000
0+
0#
0&!
#1200000
1+
1(
b1011 "
1#
1<
1&!
b110 G
b110 M
b110 S
b110 Y
b110 _
b110 e
b110 k
b110 q
b110 w
b110 }
b110 %!
b110 +!
#1300000
0+
0#
0&!
#1400000
1+
0)
0(
1'
0&
b100 "
1#
0=
0<
1;
0:
1&!
b111 G
b111 M
b111 S
b111 Y
b111 _
b111 e
b111 k
b111 q
b111 w
b111 }
b111 %!
b111 +!
#1500000
0+
0#
0&!
#1600000
1+
1)
1&
b1101 "
1#
1=
1:
1&!
b1000 G
b1000 M
b1000 S
b1000 Y
b1000 _
b1000 e
b1000 k
b1000 q
b1000 w
b1000 }
b1000 %!
b1000 +!
#1700000
0+
0#
0&!
#1800000
1+
1#
1&!
b1001 G
b1001 M
b1001 S
b1001 Y
b1001 _
b1001 e
b1001 k
b1001 q
b1001 w
b1001 }
b1001 %!
b1001 +!
#1900000
0+
0#
0&!
#2000000
1+
0'
0&
b1 "
1#
0;
0:
1&!
b1010 G
b1010 M
b1010 S
b1010 Y
b1010 _
b1010 e
b1010 k
b1010 q
b1010 w
b1010 }
b1010 %!
b1010 +!
#2100000
0+
0#
0&!
#2200000
1+
0)
1&
b1000 "
1#
0=
1:
1&!
b1011 G
b1011 M
b1011 S
b1011 Y
b1011 _
b1011 e
b1011 k
b1011 q
b1011 w
b1011 }
b1011 %!
b1011 +!
#2300000
0+
0#
0&!
#2400000
1+
1)
1'
0&
b101 "
1#
1=
1;
0:
1&!
b1100 G
b1100 M
b1100 S
b1100 Y
b1100 _
b1100 e
b1100 k
b1100 q
b1100 w
b1100 }
b1100 %!
b1100 +!
#2500000
0+
0#
0&!
#2600000
1+
1(
0'
1&
b1011 "
1#
1<
0;
1:
1&!
b1101 G
b1101 M
b1101 S
b1101 Y
b1101 _
b1101 e
b1101 k
b1101 q
b1101 w
b1101 }
b1101 %!
b1101 +!
#2700000
0+
0#
0&!
#2800000
1+
0)
b1010 "
1#
0=
1&!
b1110 G
b1110 M
b1110 S
b1110 Y
b1110 _
b1110 e
b1110 k
b1110 q
b1110 w
b1110 }
b1110 %!
b1110 +!
#2900000
0+
0#
0&!
#3000000
1+
1)
1'
b1111 "
1#
1=
1;
1&!
b1111 G
b1111 M
b1111 S
b1111 Y
b1111 _
b1111 e
b1111 k
b1111 q
b1111 w
b1111 }
b1111 %!
b1111 +!
#3100000
0+
0#
0&!
#3200000
1+
1#
1&!
b10000 G
b10000 M
b10000 S
b10000 Y
b10000 _
b10000 e
b10000 k
b10000 q
b10000 w
b10000 }
b10000 %!
b10000 +!
#3300000
0+
0#
0&!
#3400000
1+
0(
0'
b1001 "
1#
0<
0;
1&!
b10001 G
b10001 M
b10001 S
b10001 Y
b10001 _
b10001 e
b10001 k
b10001 q
b10001 w
b10001 }
b10001 %!
b10001 +!
#3500000
0+
0#
0&!
#3600000
1+
0)
1(
1'
0&
b110 "
1#
0=
1<
1;
0:
1&!
b10010 G
b10010 M
b10010 S
b10010 Y
b10010 _
b10010 e
b10010 k
b10010 q
b10010 w
b10010 }
b10010 %!
b10010 +!
#3700000
0+
0#
0&!
#3800000
1+
1&
b1110 "
1#
1:
1&!
b10011 G
b10011 M
b10011 S
b10011 Y
b10011 _
b10011 e
b10011 k
b10011 q
b10011 w
b10011 }
b10011 %!
b10011 +!
#3900000
0+
0#
0&!
#4000000
1+
0'
0&
b10 "
1#
0;
0:
1&!
b10100 G
b10100 M
b10100 S
b10100 Y
b10100 _
b10100 e
b10100 k
b10100 q
b10100 w
b10100 }
b10100 %!
b10100 +!
#4100000
0+
0#
0&!
#4200000
1+
1)
1'
1&
b1111 "
1#
1=
1;
1:
1&!
b10101 G
b10101 M
b10101 S
b10101 Y
b10101 _
b10101 e
b10101 k
b10101 q
b10101 w
b10101 }
b10101 %!
b10101 +!
#4300000
0+
0#
0&!
#4400000
1+
0(
0'
0&
b1 "
1#
0<
0;
0:
1&!
b10110 G
b10110 M
b10110 S
b10110 Y
b10110 _
b10110 e
b10110 k
b10110 q
b10110 w
b10110 }
b10110 %!
b10110 +!
#4500000
0+
0#
0&!
#4600000
1+
1(
1&
b1011 "
1#
1<
1:
1&!
b10111 G
b10111 M
b10111 S
b10111 Y
b10111 _
b10111 e
b10111 k
b10111 q
b10111 w
b10111 }
b10111 %!
b10111 +!
#4700000
0+
0#
0&!
#4800000
1+
0)
0(
b1000 "
1#
0=
0<
1&!
b11000 G
b11000 M
b11000 S
b11000 Y
b11000 _
b11000 e
b11000 k
b11000 q
b11000 w
b11000 }
b11000 %!
b11000 +!
#4900000
0+
0#
0&!
#5000000
1+
1#
1&!
b11001 G
b11001 M
b11001 S
b11001 Y
b11001 _
b11001 e
b11001 k
b11001 q
b11001 w
b11001 }
b11001 %!
b11001 +!
#5100000
0+
0#
0&!
#5200000
1+
0&
b0 "
1#
0:
1&!
b11010 G
b11010 M
b11010 S
b11010 Y
b11010 _
b11010 e
b11010 k
b11010 q
b11010 w
b11010 }
b11010 %!
b11010 +!
#5300000
0+
0#
0&!
#5400000
1+
1#
1&!
b11011 G
b11011 M
b11011 S
b11011 Y
b11011 _
b11011 e
b11011 k
b11011 q
b11011 w
b11011 }
b11011 %!
b11011 +!
#5500000
0+
0#
0&!
#5600000
1+
1)
1&
b1001 "
1#
1=
1:
1&!
b11100 G
b11100 M
b11100 S
b11100 Y
b11100 _
b11100 e
b11100 k
b11100 q
b11100 w
b11100 }
b11100 %!
b11100 +!
#5700000
0+
0#
0&!
#5800000
1+
0)
0&
b0 "
1#
0=
0:
1&!
b11101 G
b11101 M
b11101 S
b11101 Y
b11101 _
b11101 e
b11101 k
b11101 q
b11101 w
b11101 }
b11101 %!
b11101 +!
#5900000
0+
0#
0&!
#6000000
1+
1)
1&
b1001 "
1#
1=
1:
1&!
b11110 G
b11110 M
b11110 S
b11110 Y
b11110 _
b11110 e
b11110 k
b11110 q
b11110 w
b11110 }
b11110 %!
b11110 +!
#6100000
0+
0#
0&!
#6200000
1+
0)
1(
b1010 "
1#
0=
1<
1&!
b11111 G
b11111 M
b11111 S
b11111 Y
b11111 _
b11111 e
b11111 k
b11111 q
b11111 w
b11111 }
b11111 %!
b11111 +!
#6300000
0+
0#
0&!
#6400000
1+
1)
0&
b11 "
1#
1=
0:
1&!
b100000 G
b100000 M
b100000 S
b100000 Y
b100000 _
b100000 e
b100000 k
b100000 q
b100000 w
b100000 }
b100000 %!
b100000 +!
#6500000
0+
0#
0&!
#6600000
1+
0)
1&
b1010 "
1#
0=
1:
1&!
b100001 G
b100001 M
b100001 S
b100001 Y
b100001 _
b100001 e
b100001 k
b100001 q
b100001 w
b100001 }
b100001 %!
b100001 +!
#6700000
0+
0#
0&!
#6800000
1+
1)
0&
b11 "
1#
1=
0:
1&!
b100010 G
b100010 M
b100010 S
b100010 Y
b100010 _
b100010 e
b100010 k
b100010 q
b100010 w
b100010 }
b100010 %!
b100010 +!
#6900000
0+
0#
0&!
#7000000
1+
0)
b10 "
1#
0=
1&!
b100011 G
b100011 M
b100011 S
b100011 Y
b100011 _
b100011 e
b100011 k
b100011 q
b100011 w
b100011 }
b100011 %!
b100011 +!
#7100000
0+
0#
0&!
#7200000
1+
1)
1'
b111 "
1#
1=
1;
1&!
b100100 G
b100100 M
b100100 S
b100100 Y
b100100 _
b100100 e
b100100 k
b100100 q
b100100 w
b100100 }
b100100 %!
b100100 +!
#7300000
0+
0#
0&!
#7400000
1+
1#
1&!
b100101 G
b100101 M
b100101 S
b100101 Y
b100101 _
b100101 e
b100101 k
b100101 q
b100101 w
b100101 }
b100101 %!
b100101 +!
#7500000
0+
0#
0&!
#7600000
1+
1#
1&!
b100110 G
b100110 M
b100110 S
b100110 Y
b100110 _
b100110 e
b100110 k
b100110 q
b100110 w
b100110 }
b100110 %!
b100110 +!
#7700000
0+
0#
0&!
#7800000
1+
0'
b11 "
1#
0;
1&!
b100111 G
b100111 M
b100111 S
b100111 Y
b100111 _
b100111 e
b100111 k
b100111 q
b100111 w
b100111 }
b100111 %!
b100111 +!
#7900000
0+
0#
0&!
#8000000
1+
0)
0(
1&
b1000 "
1#
0=
0<
1:
1&!
b101000 G
b101000 M
b101000 S
b101000 Y
b101000 _
b101000 e
b101000 k
b101000 q
b101000 w
b101000 }
b101000 %!
b101000 +!
#8100000
0+
0#
0&!
#8200000
1+
1)
b1001 "
1#
1=
1&!
b101001 G
b101001 M
b101001 S
b101001 Y
b101001 _
b101001 e
b101001 k
b101001 q
b101001 w
b101001 }
b101001 %!
b101001 +!
#8300000
0+
0#
0&!
#8400000
1+
0)
1'
b1100 "
1#
0=
1;
1&!
b101010 G
b101010 M
b101010 S
b101010 Y
b101010 _
b101010 e
b101010 k
b101010 q
b101010 w
b101010 }
b101010 %!
b101010 +!
#8500000
0+
0#
0&!
#8600000
1+
0&
b100 "
1#
0:
1&!
b101011 G
b101011 M
b101011 S
b101011 Y
b101011 _
b101011 e
b101011 k
b101011 q
b101011 w
b101011 }
b101011 %!
b101011 +!
#8700000
0+
0#
0&!
#8800000
1+
1(
0'
b10 "
1#
1<
0;
1&!
b101100 G
b101100 M
b101100 S
b101100 Y
b101100 _
b101100 e
b101100 k
b101100 q
b101100 w
b101100 }
b101100 %!
b101100 +!
#8900000
0+
0#
0&!
#9000000
1+
1&
b1010 "
1#
1:
1&!
b101101 G
b101101 M
b101101 S
b101101 Y
b101101 _
b101101 e
b101101 k
b101101 q
b101101 w
b101101 }
b101101 %!
b101101 +!
#9100000
0+
0#
0&!
#9200000
1+
1'
0&
b110 "
1#
1;
0:
1&!
b101110 G
b101110 M
b101110 S
b101110 Y
b101110 _
b101110 e
b101110 k
b101110 q
b101110 w
b101110 }
b101110 %!
b101110 +!
#9300000
0+
0#
0&!
#9400000
1+
1)
0'
1&
b1011 "
1#
1=
0;
1:
1&!
b101111 G
b101111 M
b101111 S
b101111 Y
b101111 _
b101111 e
b101111 k
b101111 q
b101111 w
b101111 }
b101111 %!
b101111 +!
#9500000
0+
0#
0&!
#9600000
1+
0)
0&
b10 "
1#
0=
0:
1&!
b110000 G
b110000 M
b110000 S
b110000 Y
b110000 _
b110000 e
b110000 k
b110000 q
b110000 w
b110000 }
b110000 %!
b110000 +!
#9700000
0+
0#
0&!
#9800000
1+
1)
1'
1&
b1111 "
1#
1=
1;
1:
1&!
b110001 G
b110001 M
b110001 S
b110001 Y
b110001 _
b110001 e
b110001 k
b110001 q
b110001 w
b110001 }
b110001 %!
b110001 +!
