Flowrian/_service/20181129213625_SimulateISim_201624506_LaunchPad_tb/LaunchPad_tb.vcd
$date
   Thu Nov 29 21:36:30 2018
$end
$version
  P.15xf
$end
$timescale
  1ps
$end
$scope module LaunchPad_tb $end
$var wire 1 ! Accout [11] $end
$var wire 1 " Accout [10] $end
$var wire 1 # Accout [9] $end
$var wire 1 $ Accout [8] $end
$var wire 1 % Accout [7] $end
$var wire 1 & Accout [6] $end
$var wire 1 ' Accout [5] $end
$var wire 1 ( Accout [4] $end
$var wire 1 ) Accout [3] $end
$var wire 1 * Accout [2] $end
$var wire 1 + Accout [1] $end
$var wire 1 , Accout [0] $end
$var wire 1 - Dout [3] $end
$var wire 1 . Dout [2] $end
$var wire 1 / Dout [1] $end
$var wire 1 0 Dout [0] $end
$var wire 1 1 Pout $end
$var wire 1 2 RW $end
$var reg 1 3 BTN1 $end
$var reg 1 4 BTN2 $end
$var reg 1 5 BTN3 $end
$var reg 1 6 BTN4 $end
$var reg 1 7 BTN5 $end
$var reg 1 8 BTN6 $end
$var reg 1 9 BTN7 $end
$var reg 1 : BTN8 $end
$var reg 1 ; BTN9 $end
$var reg 1 < BTN_0 $end
$var reg 1 = BTN_sharp $end
$var reg 1 > BTN_star $end
$var reg 1 ? CLK $end
$var reg 1 @ Dip_1 $end
$var reg 1 A Dip_2 $end
$var reg 1 B Dip_3 $end
$var reg 1 C Dip_4 $end
$var reg 1 D RST $end
$upscope $end
$enddefinitions $end
#0
$dumpvars
0,
0+
0*
0)
0(
0'
0&
0%
0$
0#
0"
0!
03
04
05
06
07
08
09
0:
0;
0<
0=
0>
1?
1@
0A
0B
0C
1D
00
0/
0.
0-
01
02
$end
#50000
0?
#100000
1?
#150000
0?
#200000
1?
#250000
0?
#300000
1?
0D
#350000
0?
#400000
13
1?
#450000
0?
#500000
1?
#550000
0?
#600000
1?
#650000
0?
#700000
1?
#750000
0?
#800000
03
1?
#850000
0?
#900000
1?
#950000
0?
#1000000
1?
#1050000
0?
#1100000
1?
#1150000
0?
#1200000
18
1?
#1250000
0?
#1300000
1?
#1350000
0?
#1400000
1?
#1450000
0?
#1500000
08
1?
#1550000
0?
#1600000
1?
1A
#1650000
0?
#1700000
1?
#1750000
0?
#1800000
1?
#1850000
0?
#1900000
13
1?
#1950000
0?
#2000000
1?
#2050000
0?
#2100000
1?
#2150000
0?
#2200000
03
1?
#2250000
0?
#2300000
1?
#2350000
0?
#2400000
1?
1C
#2450000
0?
#2500000
1?
#2550000
0?
#2600000
1?
#2650000
0?
#2700000
15
1?
#2750000
0?
#2800000
1?
#2850000
0?
#2900000
1?
#2950000
0?
#3000000
05
1?
#3050000
0?
#3100000
1?
#3150000
0?
#3200000
17
1?
#3250000
0?
#3300000
1?
#3350000
0?
#3400000
1?
#3450000
0?
#3500000
07
1?
#3550000
0?
#3600000
1?
#3650000
0?
#3700000
1<
1?
#3750000
0?
#3800000
1?
#3850000
0?
#3900000
1?
#3950000
0?
#4000000
0<
1?
#4050000
0?
#4100000
1?
#4150000
0?
#4200000
1=
1?
#4250000
0?
#4300000
1?
#4350000
0?
#4400000
0=
1?
