Flowrian/_service/20181129211839_SimulateISim_201624506_SRAM12bits_tb/SRAM12bits_tb.vcd
$date
   Thu Nov 29 21:18:43 2018
$end
$version
  P.15xf
$end
$timescale
  1ps
$end
$scope module SRAM12bits_tb $end
$var wire 1 ! Dout [3] $end
$var wire 1 " Dout [2] $end
$var wire 1 # Dout [1] $end
$var wire 1 $ Dout [0] $end
$var reg 4 % Address [3:0] $end
$var reg 1 & CLK $end
$var reg 4 ' Din [3:0] $end
$var reg 1 ( RST $end
$var reg 1 ) RW $end
$upscope $end
$enddefinitions $end
#0
$dumpvars
0$
0#
0"
0!
b0 %
1&
b0 '
1(
1)
$end
#50000
0&
#100000
1&
#150000
0&
#200000
1&
0(
#250000
0&
#300000
1#
1!
1&
b1010 '
#350000
0&
#400000
1&
#450000
0&
#500000
1&
0)
#550000
0&
#600000
1&
#650000
0&
#700000
0#
0!
b1000 %
1&
#750000
0&
#800000
1#
1!
1&
1)
#850000
0&
#900000
1&
#950000
0&
#1000000
1$
0#
0!
1&
b1 '
#1050000
0&
#1100000
1&
#1150000
0&
#1200000
1&
#1250000
0&
#1300000
1&
0)
#1350000
0&
#1400000
1&
#1450000
0&
#1500000
1&
#1550000
0&
#1600000
1&
#1650000
0&
#1700000
1&
#1750000
0&
#1800000
1&
#1850000
0&
#1900000
0$
b110 %
1&
#1950000
0&
#2000000
1&
#2050000
0&
#2100000
1&
#2150000
0&
#2200000
1&
#2250000
0&
#2300000
1$
1&
1)
#2350000
0&
#2400000
1#
1"
1!
1&
b1111 '
#2450000
0&
#2500000
1&
#2550000
0&
#2600000
1&
#2650000
0&
#2700000
1&
#2750000
0&
#2800000
1&
#2850000
0&
#2900000
1&
#2950000
0&
#3000000
1&
0)
