Flowrian/_service/20181211172355_SimulateISim_201624506_Mux12bit_4_tb/Mux12bit_4_tb.vcd
$date
   Tue Dec 11 17:23:59 2018
$end
$version
  P.15xf
$end
$timescale
  1ps
$end
$scope module Mux12bit_4_tb $end
$var wire 1 ! D_out $end
$var reg 4 " B_in [3:0] $end
$var reg 1 # D0 $end
$var reg 1 $ D1 $end
$var reg 1 % D2 $end
$var reg 1 & D3 $end
$var reg 1 ' D4 $end
$var reg 1 ( D5 $end
$var reg 1 ) D6 $end
$var reg 1 * D7 $end
$var reg 1 + D8 $end
$var reg 1 , D9 $end
$var reg 1 - D_sharp $end
$var reg 1 . D_star $end
$upscope $end
$enddefinitions $end
#0
$dumpvars
1!
b0 "
0#
1$
0%
0&
0'
0(
0)
0*
0+
0,
0-
0.
$end
#400000
0!
0$
#700000
b1 "
#900000
1%
#1300000
0%
#1600000
b10 "
#1900000
1&
#2400000
0&
#2700000
b11 "
#2900000
1'
#3400000
0'
#3600000
b100 "
#3900000
1(
#4400000
0(
#4700000
b101 "
#4900000
1)
#5400000
0)
#5700000
b110 "
#5900000
1*
#6400000
0*
#6600000
b111 "
#6800000
1+
#7300000
0+
#7600000
b1000 "
#7800000
1,
#8300000
0,
#8500000
b1001 "
#8700000
1-
#9200000
0-
#9400000
b1010 "
#9600000
1.
