Flowrian/_service/20181220214416_SimulateISim_201624506_LaunchPad_tb/LaunchPad_tb.vcd
$date
   Thu Dec 20 21:44:21 2018
$end
$version
  P.15xf
$end
$timescale
  1ps
$end
$scope module LaunchPad_tb $end
$var wire 1 ! Accout [11] $end
$var wire 1 " Accout [10] $end
$var wire 1 # Accout [9] $end
$var wire 1 $ Accout [8] $end
$var wire 1 % Accout [7] $end
$var wire 1 & Accout [6] $end
$var wire 1 ' Accout [5] $end
$var wire 1 ( Accout [4] $end
$var wire 1 ) Accout [3] $end
$var wire 1 * Accout [2] $end
$var wire 1 + Accout [1] $end
$var wire 1 , Accout [0] $end
$var wire 1 - CE $end
$var wire 1 . Dout [3] $end
$var wire 1 / Dout [2] $end
$var wire 1 0 Dout [1] $end
$var wire 1 1 Dout [0] $end
$var wire 1 2 Pout $end
$var wire 1 3 RW $end
$var reg 1 4 BTN1 $end
$var reg 1 5 BTN2 $end
$var reg 1 6 BTN3 $end
$var reg 1 7 BTN4 $end
$var reg 1 8 BTN5 $end
$var reg 1 9 BTN6 $end
$var reg 1 : BTN7 $end
$var reg 1 ; BTN8 $end
$var reg 1 < BTN9 $end
$var reg 1 = BTN_0 $end
$var reg 1 > BTN_sharp $end
$var reg 1 ? BTN_star $end
$var reg 1 @ CLK $end
$var reg 1 A Dip_1 $end
$var reg 1 B Dip_2 $end
$var reg 1 C Dip_3 $end
$var reg 1 D Dip_4 $end
$var reg 1 E RST $end
$upscope $end
$enddefinitions $end
#0
$dumpvars
0,
0+
0*
0)
0(
0'
0&
0%
0$
0#
0"
14
05
06
07
08
09
0:
0;
0<
0=
0>
0?
1@
1A
0B
0C
0D
1E
0!
0-
01
00
0/
0.
02
03
$end
#500000
0@
#700000
04
#800000
0E
#1000000
1@
#1400000
18
#1500000
0@
#2000000
1@
#2200000
08
#2500000
0@
#2800000
16
#3000000
1@
#3500000
0@
#3800000
06
#4000000
1@
#4500000
1;
0@
